<?xml version="1.0" encoding="UTF-8"?>
<!DOCTYPE svg PUBLIC '-//W3C//DTD SVG 1.0//EN'
          'http://www.w3.org/TR/2001/REC-SVG-20010904/DTD/svg10.dtd'>
<svg fill-opacity="0" xmlns:xlink="http://www.w3.org/1999/xlink" color-rendering="auto" color-interpolation="auto" text-rendering="auto" stroke="rgb(0,0,0)" stroke-linecap="square" width="488" stroke-miterlimit="10" shape-rendering="auto" stroke-opacity="0" fill="rgb(0,0,0)" stroke-dasharray="none" font-weight="normal" stroke-width="1" height="161" xmlns="http://www.w3.org/2000/svg" font-family="'Dialog'" font-style="normal" stroke-linejoin="miter" font-size="12px" stroke-dashoffset="0" image-rendering="auto"
><!--Generated by the Batik Graphics2D SVG Generator--><defs id="genericDefs"
  /><g
  ><defs id="defs1"
    ><clipPath clipPathUnits="userSpaceOnUse" id="clipPath1"
      ><path d="M-7 -7 L71 -7 L71 166 L-7 166 L-7 -7 Z"
      /></clipPath
      ><clipPath clipPathUnits="userSpaceOnUse" id="clipPath2"
      ><path d="M-7 -7 L81 -7 L81 166 L-7 166 L-7 -7 Z"
      /></clipPath
      ><clipPath clipPathUnits="userSpaceOnUse" id="clipPath3"
      ><path d="M-7 -7 L19 -7 L19 78 L-7 78 L-7 -7 Z"
      /></clipPath
      ><clipPath clipPathUnits="userSpaceOnUse" id="clipPath4"
      ><path d="M-70 -15 L140 -15 L140 30 L-70 30 L-70 -15 Z"
      /></clipPath
      ><clipPath clipPathUnits="userSpaceOnUse" id="clipPath5"
      ><path d="M-111 -15 L222 -15 L222 30 L-111 30 L-111 -15 Z"
      /></clipPath
      ><clipPath clipPathUnits="userSpaceOnUse" id="clipPath6"
      ><path d="M0 0 L488 0 L488 104 L0 104 L0 0 Z"
      /></clipPath
      ><clipPath clipPathUnits="userSpaceOnUse" id="clipPath7"
      ><path d="M331 30 L331 45 L153 45 L153 30 ZM422 85 L422 100 L60 100 L60 85 ZM0 0 L0 17 L102 17 L102 32 L0 32 L0 104 L488 104 L488 0 Z"
      /></clipPath
      ><clipPath clipPathUnits="userSpaceOnUse" id="clipPath8"
      ><path d="M422 30 L422 45 L60 45 L60 30 ZM0 0 L0 104 L488 104 L488 0 Z"
      /></clipPath
      ><clipPath clipPathUnits="userSpaceOnUse" id="clipPath9"
      ><path d="M-362 -15 L724 -15 L724 30 L-362 30 L-362 -15 Z"
      /></clipPath
      ><clipPath clipPathUnits="userSpaceOnUse" id="clipPath10"
      ><path d="M-178 -15 L356 -15 L356 30 L-178 30 L-178 -15 Z"
      /></clipPath
    ></defs
    ><g fill="white" text-rendering="geometricPrecision" fill-opacity="1" stroke-opacity="1" stroke="white"
    ><rect x="0" width="488" height="161" y="0" stroke="none"
    /></g
    ><g font-size="11px" transform="translate(27,2)" fill-opacity="1" fill="rgb(122,207,245)" text-rendering="geometricPrecision" image-rendering="optimizeQuality" font-family="sans-serif" stroke="rgb(122,207,245)" stroke-opacity="1"
    ><circle r="5" clip-path="url(#clipPath1)" cx="30" cy="5" stroke="none"
      /><rect x="26" width="8" height="104" y="50" clip-path="url(#clipPath1)" stroke="none"
    /></g
    ><g stroke-linecap="butt" font-size="11px" transform="translate(27,2)" fill-opacity="1" fill="black" text-rendering="geometricPrecision" image-rendering="optimizeQuality" font-family="sans-serif" stroke-linejoin="round" stroke="black" stroke-opacity="1" stroke-miterlimit="0"
    ><circle fill="none" r="5" clip-path="url(#clipPath1)" cx="30" cy="5"
      /><rect fill="none" x="26" width="8" height="104" y="50" clip-path="url(#clipPath1)"
      /><line y2="25" fill="none" x1="30" clip-path="url(#clipPath1)" x2="30" y1="10"
      /><line y2="36" fill="none" x1="30" clip-path="url(#clipPath1)" x2="21" y1="25"
      /><line y2="36" fill="none" x1="30" clip-path="url(#clipPath1)" x2="39" y1="25"
      /><line y2="16" fill="none" x1="21" clip-path="url(#clipPath1)" x2="39" y1="16"
    /></g
    ><g font-size="11px" transform="translate(414,2)" fill-opacity="1" fill="rgb(122,207,245)" text-rendering="geometricPrecision" image-rendering="optimizeQuality" font-family="sans-serif" stroke="rgb(122,207,245)" stroke-opacity="1"
    ><rect x="0" width="69" height="35" y="0" clip-path="url(#clipPath2)" stroke="none"
    /></g
    ><g stroke-linecap="butt" font-size="11px" transform="translate(414,2)" fill-opacity="1" fill="black" text-rendering="geometricPrecision" image-rendering="optimizeQuality" font-family="sans-serif" stroke-linejoin="round" stroke="black" stroke-opacity="1" stroke-miterlimit="0"
    ><rect fill="none" x="0" width="69" height="35" y="0" clip-path="url(#clipPath2)"
      /><line clip-path="url(#clipPath2)" fill="none" x1="34" x2="34" y1="35" y2="155" stroke-linejoin="bevel" stroke-dasharray="8,3"
    /></g
    ><g font-size="11px" transform="translate(445,70)" fill-opacity="1" fill="rgb(122,207,245)" text-rendering="geometricPrecision" image-rendering="optimizeQuality" font-family="sans-serif" stroke="rgb(122,207,245)" stroke-opacity="1"
    ><rect x="0" width="8" height="67" y="0" clip-path="url(#clipPath3)" stroke="none"
    /></g
    ><g stroke-linecap="butt" font-size="11px" transform="translate(445,70)" fill-opacity="1" fill="black" text-rendering="geometricPrecision" image-rendering="optimizeQuality" font-family="sans-serif" stroke-linejoin="round" stroke="black" stroke-opacity="1" stroke-miterlimit="0"
    ><rect fill="none" x="0" width="8" height="67" y="0" clip-path="url(#clipPath3)"
    /></g
    ><g font-size="11px" transform="translate(414,2)" fill-opacity="1" fill="black" text-rendering="geometricPrecision" image-rendering="optimizeQuality" font-family="sans-serif" stroke="black" stroke-opacity="1"
    ><text x="16" xml:space="preserve" y="12" clip-path="url(#clipPath4)" stroke="none"
      >System</text
    ></g
    ><g font-size="11px" transform="translate(2,37)" fill-opacity="1" fill="black" text-rendering="geometricPrecision" image-rendering="optimizeQuality" font-family="sans-serif" stroke="black" stroke-opacity="1"
    ><text x="10" xml:space="preserve" y="12" clip-path="url(#clipPath5)" stroke="none"
      >CenterCoordinator</text
    ></g
    ><g stroke-linecap="butt" font-size="11px" transform="translate(11,20)" fill-opacity="1" fill="black" text-rendering="geometricPrecision" image-rendering="optimizeQuality" font-family="sans-serif" stroke-linejoin="round" stroke="black" stroke-opacity="1"
    ><line y2="50" fill="none" x1="50" clip-path="url(#clipPath7)" x2="434" y1="50"
      /><polygon points=" 434 50 422 44 422 56" clip-path="url(#clipPath7)" stroke="none"
      /><polygon fill="none" points=" 434 50 422 44 422 56" clip-path="url(#clipPath7)"
    /></g
    ><g fill-opacity="1" text-rendering="geometricPrecision" stroke="black" stroke-linecap="butt" transform="translate(11,75)" stroke-miterlimit="0" stroke-opacity="1" fill="black" stroke-dasharray="8,3" font-family="sans-serif" stroke-linejoin="round" font-size="11px" image-rendering="optimizeQuality"
    ><line y2="50" fill="none" x1="434" clip-path="url(#clipPath8)" x2="50" y1="50"
      /><line clip-path="url(#clipPath8)" fill="none" x1="50" x2="62" y1="50" y2="56" stroke-dasharray="none" stroke-miterlimit="10"
      /><line clip-path="url(#clipPath8)" fill="none" x1="50" x2="62" y1="50" y2="44" stroke-dasharray="none" stroke-miterlimit="10"
    /></g
    ><g font-size="11px" transform="translate(71,105)" fill-opacity="1" fill="white" text-rendering="geometricPrecision" image-rendering="optimizeQuality" font-family="sans-serif" stroke="white" stroke-opacity="1"
    ><rect x="0" width="362" height="15" y="0" clip-path="url(#clipPath9)" stroke="none"
      /><text fill="black" x="10" xml:space="preserve" y="12" clip-path="url(#clipPath9)" stroke="none"
      >1.1: Prints all vaccines listed based on vaccine type and alphabetically</text
    ></g
    ><g font-size="11px" transform="translate(164,50)" fill-opacity="1" fill="white" text-rendering="geometricPrecision" image-rendering="optimizeQuality" font-family="sans-serif" stroke="white" stroke-opacity="1"
    ><rect x="0" width="178" height="15" y="0" clip-path="url(#clipPath10)" stroke="none"
      /><text fill="black" x="10" xml:space="preserve" y="12" clip-path="url(#clipPath10)" stroke="none"
      >1: Asks to see all vaccines listed</text
    ></g
    ><g font-size="8px" fill-opacity="1" fill="rgb(120,120,120)" text-rendering="geometricPrecision" image-rendering="optimizeQuality" stroke="rgb(120,120,120)" stroke-opacity="1"
    ><text x="0" xml:space="preserve" y="10" stroke="none"
      >Visual Paradigm Standard(Ricardo Manuel Rego Guimarães(Instituto Superior de Engenharia do Porto))</text
    ></g
  ></g
></svg
>
