<?xml version="1.0" encoding="UTF-8"?>
<!DOCTYPE svg PUBLIC '-//W3C//DTD SVG 1.0//EN'
          'http://www.w3.org/TR/2001/REC-SVG-20010904/DTD/svg10.dtd'>
<svg fill-opacity="0" xmlns:xlink="http://www.w3.org/1999/xlink" color-rendering="auto" color-interpolation="auto" text-rendering="auto" stroke="rgb(0,0,0)" stroke-linecap="square" width="627" stroke-miterlimit="10" shape-rendering="auto" stroke-opacity="0" fill="rgb(0,0,0)" stroke-dasharray="none" font-weight="normal" stroke-width="1" height="454" xmlns="http://www.w3.org/2000/svg" font-family="'Dialog'" font-style="normal" stroke-linejoin="miter" font-size="12px" stroke-dashoffset="0" image-rendering="auto"
><!--Generated by the Batik Graphics2D SVG Generator--><defs id="genericDefs"
  /><g
  ><defs id="defs1"
    ><clipPath clipPathUnits="userSpaceOnUse" id="clipPath1"
      ><path d="M-7 -7 L114 -7 L114 459 L-7 459 L-7 -7 Z"
      /></clipPath
      ><clipPath clipPathUnits="userSpaceOnUse" id="clipPath2"
      ><path d="M-7 -7 L81 -7 L81 459 L-7 459 L-7 -7 Z"
      /></clipPath
      ><clipPath clipPathUnits="userSpaceOnUse" id="clipPath3"
      ><path d="M-7 -7 L19 -7 L19 81 L-7 81 L-7 -7 Z"
      /></clipPath
      ><clipPath clipPathUnits="userSpaceOnUse" id="clipPath4"
      ><path d="M-7 -7 L19 -7 L19 78 L-7 78 L-7 -7 Z"
      /></clipPath
      ><clipPath clipPathUnits="userSpaceOnUse" id="clipPath5"
      ><path d="M-7 -7 L19 -7 L19 59 L-7 59 L-7 -7 Z"
      /></clipPath
      ><clipPath clipPathUnits="userSpaceOnUse" id="clipPath6"
      ><path d="M-7 -7 L19 -7 L19 51 L-7 51 L-7 -7 Z"
      /></clipPath
      ><clipPath clipPathUnits="userSpaceOnUse" id="clipPath7"
      ><path d="M-94 -14 L188 -14 L188 28 L-94 28 L-94 -14 Z"
      /></clipPath
      ><clipPath clipPathUnits="userSpaceOnUse" id="clipPath8"
      ><path d="M-70 -14 L140 -14 L140 28 L-70 28 L-70 -14 Z"
      /></clipPath
      ><clipPath clipPathUnits="userSpaceOnUse" id="clipPath9"
      ><path d="M0 0 L630 0 L630 104 L0 104 L0 0 Z"
      /></clipPath
      ><clipPath clipPathUnits="userSpaceOnUse" id="clipPath10"
      ><path d="M415 31 L415 45 L200 45 L200 31 ZM445 85 L445 99 L180 99 L180 85 ZM92 0 L92 13 L0 13 L0 104 L630 104 L630 0 Z"
      /></clipPath
      ><clipPath clipPathUnits="userSpaceOnUse" id="clipPath11"
      ><path d="M445 31 L445 45 L180 45 L180 31 ZM434 72 L434 86 L191 86 L191 72 ZM0 0 L0 104 L630 104 L630 0 Z"
      /></clipPath
      ><clipPath clipPathUnits="userSpaceOnUse" id="clipPath12"
      ><path d="M434 31 L434 45 L191 45 L191 31 ZM564 85 L564 99 L68 99 L68 85 ZM0 0 L0 104 L630 104 L630 0 L445 0 L445 4 L180 4 L180 0 Z"
      /></clipPath
      ><clipPath clipPathUnits="userSpaceOnUse" id="clipPath13"
      ><path d="M564 32 L564 46 L68 46 L68 32 ZM387 77 L387 91 L238 91 L238 77 ZM0 0 L0 104 L630 104 L630 0 Z"
      /></clipPath
      ><clipPath clipPathUnits="userSpaceOnUse" id="clipPath14"
      ><path d="M387 31 L387 45 L238 45 L238 31 ZM420 72 L420 86 L205 86 L205 72 ZM0 0 L0 104 L630 104 L630 0 Z"
      /></clipPath
      ><clipPath clipPathUnits="userSpaceOnUse" id="clipPath15"
      ><path d="M420 31 L420 45 L205 45 L205 31 ZM392 76 L392 90 L234 90 L234 76 ZM0 0 L0 104 L630 104 L630 0 L387 0 L387 4 L238 4 L238 0 Z"
      /></clipPath
      ><clipPath clipPathUnits="userSpaceOnUse" id="clipPath16"
      ><path d="M392 31 L392 45 L234 45 L234 31 ZM453 68 L453 82 L172 82 L172 68 ZM0 0 L0 104 L630 104 L630 0 Z"
      /></clipPath
      ><clipPath clipPathUnits="userSpaceOnUse" id="clipPath17"
      ><path d="M453 31 L453 45 L172 45 L172 31 ZM0 0 L0 104 L630 104 L630 0 L392 0 L392 8 L234 8 L234 0 Z"
      /></clipPath
      ><clipPath clipPathUnits="userSpaceOnUse" id="clipPath18"
      ><path d="M-281 -14 L562 -14 L562 28 L-281 28 L-281 -14 Z"
      /></clipPath
      ><clipPath clipPathUnits="userSpaceOnUse" id="clipPath19"
      ><path d="M-158 -14 L316 -14 L316 28 L-158 28 L-158 -14 Z"
      /></clipPath
      ><clipPath clipPathUnits="userSpaceOnUse" id="clipPath20"
      ><path d="M-215 -14 L430 -14 L430 28 L-215 28 L-215 -14 Z"
      /></clipPath
      ><clipPath clipPathUnits="userSpaceOnUse" id="clipPath21"
      ><path d="M-149 -14 L298 -14 L298 28 L-149 28 L-149 -14 Z"
      /></clipPath
      ><clipPath clipPathUnits="userSpaceOnUse" id="clipPath22"
      ><path d="M-496 -14 L992 -14 L992 28 L-496 28 L-496 -14 Z"
      /></clipPath
      ><clipPath clipPathUnits="userSpaceOnUse" id="clipPath23"
      ><path d="M-243 -14 L486 -14 L486 28 L-243 28 L-243 -14 Z"
      /></clipPath
      ><clipPath clipPathUnits="userSpaceOnUse" id="clipPath24"
      ><path d="M-265 -14 L530 -14 L530 28 L-265 28 L-265 -14 Z"
      /></clipPath
    ></defs
    ><g fill="white" text-rendering="geometricPrecision" fill-opacity="1" stroke-opacity="1" stroke="white"
    ><rect x="0" width="627" height="454" y="0" stroke="none"
    /></g
    ><g font-size="11px" transform="translate(2,2)" fill-opacity="1" fill="rgb(122,207,245)" text-rendering="geometricPrecision" image-rendering="optimizeQuality" font-family="sans-serif" stroke="rgb(122,207,245)" stroke-opacity="1"
    ><circle r="5" clip-path="url(#clipPath1)" cx="51" cy="5" stroke="none"
      /><rect x="47" width="8" height="398" y="49" clip-path="url(#clipPath1)" stroke="none"
    /></g
    ><g stroke-linecap="butt" font-size="11px" transform="translate(2,2)" fill-opacity="1" fill="black" text-rendering="geometricPrecision" image-rendering="optimizeQuality" font-family="sans-serif" stroke-linejoin="round" stroke="black" stroke-opacity="1" stroke-miterlimit="0"
    ><circle fill="none" r="5" clip-path="url(#clipPath1)" cx="51" cy="5"
      /><rect fill="none" x="47" width="8" height="398" y="49" clip-path="url(#clipPath1)"
      /><line y2="25" fill="none" x1="51" clip-path="url(#clipPath1)" x2="51" y1="10"
      /><line y2="36" fill="none" x1="51" clip-path="url(#clipPath1)" x2="42" y1="25"
      /><line y2="36" fill="none" x1="51" clip-path="url(#clipPath1)" x2="60" y1="25"
      /><line y2="16" fill="none" x1="42" clip-path="url(#clipPath1)" x2="60" y1="16"
    /></g
    ><g font-size="11px" transform="translate(553,2)" fill-opacity="1" fill="rgb(122,207,245)" text-rendering="geometricPrecision" image-rendering="optimizeQuality" font-family="sans-serif" stroke="rgb(122,207,245)" stroke-opacity="1"
    ><rect x="0" width="69" height="35" y="0" clip-path="url(#clipPath2)" stroke="none"
    /></g
    ><g stroke-linecap="butt" font-size="11px" transform="translate(553,2)" fill-opacity="1" fill="black" text-rendering="geometricPrecision" image-rendering="optimizeQuality" font-family="sans-serif" stroke-linejoin="round" stroke="black" stroke-opacity="1" stroke-miterlimit="0"
    ><rect fill="none" x="0" width="69" height="35" y="0" clip-path="url(#clipPath2)"
      /><line clip-path="url(#clipPath2)" fill="none" x1="34" x2="34" y1="35" y2="448" stroke-linejoin="bevel" stroke-dasharray="8,3"
    /></g
    ><g font-size="11px" transform="translate(584,88)" fill-opacity="1" fill="rgb(122,207,245)" text-rendering="geometricPrecision" image-rendering="optimizeQuality" font-family="sans-serif" stroke="rgb(122,207,245)" stroke-opacity="1"
    ><rect x="0" width="8" height="70" y="0" clip-path="url(#clipPath3)" stroke="none"
    /></g
    ><g stroke-linecap="butt" font-size="11px" transform="translate(584,88)" fill-opacity="1" fill="black" text-rendering="geometricPrecision" image-rendering="optimizeQuality" font-family="sans-serif" stroke-linejoin="round" stroke="black" stroke-opacity="1" stroke-miterlimit="0"
    ><rect fill="none" x="0" width="8" height="70" y="0" clip-path="url(#clipPath3)"
    /></g
    ><g font-size="11px" transform="translate(584,182)" fill-opacity="1" fill="rgb(122,207,245)" text-rendering="geometricPrecision" image-rendering="optimizeQuality" font-family="sans-serif" stroke="rgb(122,207,245)" stroke-opacity="1"
    ><rect x="0" width="8" height="67" y="0" clip-path="url(#clipPath4)" stroke="none"
    /></g
    ><g stroke-linecap="butt" font-size="11px" transform="translate(584,182)" fill-opacity="1" fill="black" text-rendering="geometricPrecision" image-rendering="optimizeQuality" font-family="sans-serif" stroke-linejoin="round" stroke="black" stroke-opacity="1" stroke-miterlimit="0"
    ><rect fill="none" x="0" width="8" height="67" y="0" clip-path="url(#clipPath4)"
    /></g
    ><g font-size="11px" transform="translate(584,282)" fill-opacity="1" fill="rgb(122,207,245)" text-rendering="geometricPrecision" image-rendering="optimizeQuality" font-family="sans-serif" stroke="rgb(122,207,245)" stroke-opacity="1"
    ><rect x="0" width="8" height="48" y="0" clip-path="url(#clipPath5)" stroke="none"
    /></g
    ><g stroke-linecap="butt" font-size="11px" transform="translate(584,282)" fill-opacity="1" fill="black" text-rendering="geometricPrecision" image-rendering="optimizeQuality" font-family="sans-serif" stroke-linejoin="round" stroke="black" stroke-opacity="1" stroke-miterlimit="0"
    ><rect fill="none" x="0" width="8" height="48" y="0" clip-path="url(#clipPath5)"
    /></g
    ><g font-size="11px" transform="translate(584,368)" fill-opacity="1" fill="rgb(122,207,245)" text-rendering="geometricPrecision" image-rendering="optimizeQuality" font-family="sans-serif" stroke="rgb(122,207,245)" stroke-opacity="1"
    ><rect x="0" width="8" height="40" y="0" clip-path="url(#clipPath6)" stroke="none"
    /></g
    ><g stroke-linecap="butt" font-size="11px" transform="translate(584,368)" fill-opacity="1" fill="black" text-rendering="geometricPrecision" image-rendering="optimizeQuality" font-family="sans-serif" stroke-linejoin="round" stroke="black" stroke-opacity="1" stroke-miterlimit="0"
    ><rect fill="none" x="0" width="8" height="40" y="0" clip-path="url(#clipPath6)"
    /></g
    ><g font-size="11px" transform="translate(6,37)" fill-opacity="1" fill="black" text-rendering="geometricPrecision" image-rendering="optimizeQuality" font-family="sans-serif" stroke="black" stroke-opacity="1"
    ><text x="10" xml:space="preserve" y="11" clip-path="url(#clipPath7)" stroke="none"
      >Administrator</text
    ></g
    ><g font-size="11px" transform="translate(553,2)" fill-opacity="1" fill="black" text-rendering="geometricPrecision" image-rendering="optimizeQuality" font-family="sans-serif" stroke="black" stroke-opacity="1"
    ><text x="12" xml:space="preserve" y="11" clip-path="url(#clipPath8)" stroke="none"
      >: System</text
    ></g
    ><g stroke-linecap="butt" font-size="11px" transform="translate(8,38)" fill-opacity="1" fill="black" text-rendering="geometricPrecision" image-rendering="optimizeQuality" font-family="sans-serif" stroke-linejoin="round" stroke="black" stroke-opacity="1"
    ><line y2="50" fill="none" x1="50" clip-path="url(#clipPath10)" x2="576" y1="50"
      /><polygon points=" 576 50 564 44 564 56" clip-path="url(#clipPath10)" stroke="none"
      /><polygon fill="none" points=" 576 50 564 44 564 56" clip-path="url(#clipPath10)"
    /></g
    ><g fill-opacity="1" text-rendering="geometricPrecision" stroke="black" stroke-linecap="butt" transform="translate(8,92)" stroke-miterlimit="0" stroke-opacity="1" fill="black" stroke-dasharray="8,3" font-family="sans-serif" stroke-linejoin="round" font-size="11px" image-rendering="optimizeQuality"
    ><line y2="50" fill="none" x1="576" clip-path="url(#clipPath11)" x2="50" y1="50"
      /><line clip-path="url(#clipPath11)" fill="none" x1="50" x2="62" y1="50" y2="56" stroke-dasharray="none" stroke-miterlimit="10"
      /><line clip-path="url(#clipPath11)" fill="none" x1="50" x2="62" y1="50" y2="44" stroke-dasharray="none" stroke-miterlimit="10"
    /></g
    ><g stroke-linecap="butt" font-size="11px" transform="translate(8,133)" fill-opacity="1" fill="black" text-rendering="geometricPrecision" image-rendering="optimizeQuality" font-family="sans-serif" stroke-linejoin="round" stroke="black" stroke-opacity="1"
    ><line y2="50" fill="none" x1="50" clip-path="url(#clipPath12)" x2="576" y1="50"
      /><polygon points=" 576 50 564 44 564 56" clip-path="url(#clipPath12)" stroke="none"
      /><polygon fill="none" points=" 576 50 564 44 564 56" clip-path="url(#clipPath12)"
    /></g
    ><g fill-opacity="1" text-rendering="geometricPrecision" stroke="black" stroke-linecap="butt" transform="translate(8,186)" stroke-miterlimit="0" stroke-opacity="1" fill="black" stroke-dasharray="8,3" font-family="sans-serif" stroke-linejoin="round" font-size="11px" image-rendering="optimizeQuality"
    ><line y2="50" fill="none" x1="576" clip-path="url(#clipPath13)" x2="50" y1="50"
      /><line clip-path="url(#clipPath13)" fill="none" x1="50" x2="62" y1="50" y2="56" stroke-dasharray="none" stroke-miterlimit="10"
      /><line clip-path="url(#clipPath13)" fill="none" x1="50" x2="62" y1="50" y2="44" stroke-dasharray="none" stroke-miterlimit="10"
    /></g
    ><g stroke-linecap="butt" font-size="11px" transform="translate(8,232)" fill-opacity="1" fill="black" text-rendering="geometricPrecision" image-rendering="optimizeQuality" font-family="sans-serif" stroke-linejoin="round" stroke="black" stroke-opacity="1"
    ><line y2="50" fill="none" x1="50" clip-path="url(#clipPath14)" x2="576" y1="50"
      /><polygon points=" 576 50 564 44 564 56" clip-path="url(#clipPath14)" stroke="none"
      /><polygon fill="none" points=" 576 50 564 44 564 56" clip-path="url(#clipPath14)"
    /></g
    ><g fill-opacity="1" text-rendering="geometricPrecision" stroke="black" stroke-linecap="butt" transform="translate(8,273)" stroke-miterlimit="0" stroke-opacity="1" fill="black" stroke-dasharray="8,3" font-family="sans-serif" stroke-linejoin="round" font-size="11px" image-rendering="optimizeQuality"
    ><line y2="50" fill="none" x1="576" clip-path="url(#clipPath15)" x2="50" y1="50"
      /><line clip-path="url(#clipPath15)" fill="none" x1="50" x2="62" y1="50" y2="56" stroke-dasharray="none" stroke-miterlimit="10"
      /><line clip-path="url(#clipPath15)" fill="none" x1="50" x2="62" y1="50" y2="44" stroke-dasharray="none" stroke-miterlimit="10"
    /></g
    ><g stroke-linecap="butt" font-size="11px" transform="translate(8,318)" fill-opacity="1" fill="black" text-rendering="geometricPrecision" image-rendering="optimizeQuality" font-family="sans-serif" stroke-linejoin="round" stroke="black" stroke-opacity="1"
    ><line y2="50" fill="none" x1="50" clip-path="url(#clipPath16)" x2="576" y1="50"
      /><polygon points=" 576 50 564 44 564 56" clip-path="url(#clipPath16)" stroke="none"
      /><polygon fill="none" points=" 576 50 564 44 564 56" clip-path="url(#clipPath16)"
    /></g
    ><g fill-opacity="1" text-rendering="geometricPrecision" stroke="black" stroke-linecap="butt" transform="translate(8,355)" stroke-miterlimit="0" stroke-opacity="1" fill="black" stroke-dasharray="8,3" font-family="sans-serif" stroke-linejoin="round" font-size="11px" image-rendering="optimizeQuality"
    ><line y2="50" fill="none" x1="576" clip-path="url(#clipPath17)" x2="50" y1="50"
      /><line clip-path="url(#clipPath17)" fill="none" x1="50" x2="62" y1="50" y2="56" stroke-dasharray="none" stroke-miterlimit="10"
      /><line clip-path="url(#clipPath17)" fill="none" x1="50" x2="62" y1="50" y2="44" stroke-dasharray="none" stroke-miterlimit="10"
    /></g
    ><g font-size="11px" transform="translate(180,386)" fill-opacity="1" fill="white" text-rendering="geometricPrecision" image-rendering="optimizeQuality" font-family="sans-serif" stroke="white" stroke-opacity="1"
    ><rect x="0" width="281" height="14" y="0" clip-path="url(#clipPath18)" stroke="none"
      /><text fill="black" x="9" xml:space="preserve" y="11" clip-path="url(#clipPath18)" stroke="none"
      >4.1: confirms the registration of a new Employee</text
    ></g
    ><g font-size="11px" transform="translate(242,349)" fill-opacity="1" fill="white" text-rendering="geometricPrecision" image-rendering="optimizeQuality" font-family="sans-serif" stroke="white" stroke-opacity="1"
    ><rect x="0" width="158" height="14" y="0" clip-path="url(#clipPath19)" stroke="none"
      /><text fill="black" x="10" xml:space="preserve" y="11" clip-path="url(#clipPath19)" stroke="none"
      >4: approves inputted data</text
    ></g
    ><g font-size="11px" transform="translate(213,304)" fill-opacity="1" fill="white" text-rendering="geometricPrecision" image-rendering="optimizeQuality" font-family="sans-serif" stroke="white" stroke-opacity="1"
    ><rect x="0" width="215" height="14" y="0" clip-path="url(#clipPath20)" stroke="none"
      /><text fill="black" x="10" xml:space="preserve" y="11" clip-path="url(#clipPath20)" stroke="none"
      >3.1: requests inputted data approval</text
    ></g
    ><g font-size="11px" transform="translate(246,263)" fill-opacity="1" fill="white" text-rendering="geometricPrecision" image-rendering="optimizeQuality" font-family="sans-serif" stroke="white" stroke-opacity="1"
    ><rect x="0" width="149" height="14" y="0" clip-path="url(#clipPath21)" stroke="none"
      /><text fill="black" x="10" xml:space="preserve" y="11" clip-path="url(#clipPath21)" stroke="none"
      >3: inputs Employee data</text
    ></g
    ><g font-size="11px" transform="translate(76,218)" fill-opacity="1" fill="white" text-rendering="geometricPrecision" image-rendering="optimizeQuality" font-family="sans-serif" stroke="white" stroke-opacity="1"
    ><rect x="0" width="496" height="14" y="0" clip-path="url(#clipPath22)" stroke="none"
      /><text fill="black" x="9" xml:space="preserve" y="11" clip-path="url(#clipPath22)" stroke="none"
      >2.1: requests Employee data (name, address, phone number, email, citizen card number)</text
    ></g
    ><g font-size="11px" transform="translate(199,164)" fill-opacity="1" fill="white" text-rendering="geometricPrecision" image-rendering="optimizeQuality" font-family="sans-serif" stroke="white" stroke-opacity="1"
    ><rect x="0" width="243" height="14" y="0" clip-path="url(#clipPath23)" stroke="none"
      /><text fill="black" x="9" xml:space="preserve" y="11" clip-path="url(#clipPath23)" stroke="none"
      >2: inputs the type of Employee to register</text
    ></g
    ><g font-size="11px" transform="translate(188,123)" fill-opacity="1" fill="white" text-rendering="geometricPrecision" image-rendering="optimizeQuality" font-family="sans-serif" stroke="white" stroke-opacity="1"
    ><rect x="0" width="265" height="14" y="0" clip-path="url(#clipPath24)" stroke="none"
      /><text fill="black" x="10" xml:space="preserve" y="11" clip-path="url(#clipPath24)" stroke="none"
      >1.1: requests the type of Employee to register</text
    ></g
    ><g font-size="11px" transform="translate(208,69)" fill-opacity="1" fill="white" text-rendering="geometricPrecision" image-rendering="optimizeQuality" font-family="sans-serif" stroke="white" stroke-opacity="1"
    ><rect x="0" width="215" height="14" y="0" clip-path="url(#clipPath20)" stroke="none"
      /><text fill="black" x="9" xml:space="preserve" y="11" clip-path="url(#clipPath20)" stroke="none"
      >1: starts registering a new Employee</text
    ></g
    ><g font-size="8px" fill-opacity="1" fill="rgb(120,120,120)" text-rendering="geometricPrecision" image-rendering="optimizeQuality" stroke="rgb(120,120,120)" stroke-opacity="1"
    ><text x="0" xml:space="preserve" y="10" stroke="none"
      >Visual Paradigm Standard(Edgar(Instituto Superior de Engenharia do Porto))</text
    ></g
  ></g
></svg
>
