<?xml version="1.0" encoding="UTF-8"?>
<!DOCTYPE svg PUBLIC '-//W3C//DTD SVG 1.0//EN'
          'http://www.w3.org/TR/2001/REC-SVG-20010904/DTD/svg10.dtd'>
<svg fill-opacity="0" xmlns:xlink="http://www.w3.org/1999/xlink" color-rendering="auto" color-interpolation="auto" text-rendering="auto" stroke="rgb(0,0,0)" stroke-linecap="square" width="1852" stroke-miterlimit="10" shape-rendering="auto" stroke-opacity="0" fill="rgb(0,0,0)" stroke-dasharray="none" font-weight="normal" stroke-width="1" height="850" xmlns="http://www.w3.org/2000/svg" font-family="'Dialog'" font-style="normal" stroke-linejoin="miter" font-size="12px" stroke-dashoffset="0" image-rendering="auto"
><!--Generated by the Batik Graphics2D SVG Generator--><defs id="genericDefs"
  /><g
  ><defs id="defs1"
    ><clipPath clipPathUnits="userSpaceOnUse" id="clipPath1"
      ><path d="M-7 -7 L71 -7 L71 855 L-7 855 L-7 -7 Z"
      /></clipPath
      ><clipPath clipPathUnits="userSpaceOnUse" id="clipPath2"
      ><path d="M-7 -7 L87 -7 L87 855 L-7 855 L-7 -7 Z"
      /></clipPath
      ><clipPath clipPathUnits="userSpaceOnUse" id="clipPath3"
      ><path d="M-7 -7 L19 -7 L19 59 L-7 59 L-7 -7 Z"
      /></clipPath
      ><clipPath clipPathUnits="userSpaceOnUse" id="clipPath4"
      ><path d="M-7 -7 L19 -7 L19 86 L-7 86 L-7 -7 Z"
      /></clipPath
      ><clipPath clipPathUnits="userSpaceOnUse" id="clipPath5"
      ><path d="M-7 -7 L19 -7 L19 67 L-7 67 L-7 -7 Z"
      /></clipPath
      ><clipPath clipPathUnits="userSpaceOnUse" id="clipPath6"
      ><path d="M-7 -7 L19 -7 L19 64 L-7 64 L-7 -7 Z"
      /></clipPath
      ><clipPath clipPathUnits="userSpaceOnUse" id="clipPath7"
      ><path d="M-7 -7 L141 -7 L141 855 L-7 855 L-7 -7 Z"
      /></clipPath
      ><clipPath clipPathUnits="userSpaceOnUse" id="clipPath8"
      ><path d="M-7 -7 L19 -7 L19 78 L-7 78 L-7 -7 Z"
      /></clipPath
      ><clipPath clipPathUnits="userSpaceOnUse" id="clipPath9"
      ><path d="M-7 -7 L19 -7 L19 361 L-7 361 L-7 -7 Z"
      /></clipPath
      ><clipPath clipPathUnits="userSpaceOnUse" id="clipPath10"
      ><path d="M-7 -7 L120 -7 L120 855 L-7 855 L-7 -7 Z"
      /></clipPath
      ><clipPath clipPathUnits="userSpaceOnUse" id="clipPath11"
      ><path d="M-7 -7 L19 -7 L19 63 L-7 63 L-7 -7 Z"
      /></clipPath
      ><clipPath clipPathUnits="userSpaceOnUse" id="clipPath12"
      ><path d="M-7 -7 L19 -7 L19 342 L-7 342 L-7 -7 Z"
      /></clipPath
      ><clipPath clipPathUnits="userSpaceOnUse" id="clipPath13"
      ><path d="M-7 -7 L99 -7 L99 855 L-7 855 L-7 -7 Z"
      /></clipPath
      ><clipPath clipPathUnits="userSpaceOnUse" id="clipPath14"
      ><path d="M-7 -7 L19 -7 L19 23 L-7 23 L-7 -7 Z"
      /></clipPath
      ><clipPath clipPathUnits="userSpaceOnUse" id="clipPath15"
      ><path d="M-7 -7 L93 -7 L93 855 L-7 855 L-7 -7 Z"
      /></clipPath
      ><clipPath clipPathUnits="userSpaceOnUse" id="clipPath16"
      ><path d="M-7 -7 L19 -7 L19 27 L-7 27 L-7 -7 Z"
      /></clipPath
      ><clipPath clipPathUnits="userSpaceOnUse" id="clipPath17"
      ><path d="M-82 -28 L164 -28 L164 56 L-82 56 L-82 -28 Z"
      /></clipPath
      ><clipPath clipPathUnits="userSpaceOnUse" id="clipPath18"
      ><path d="M-88 -14 L176 -14 L176 28 L-88 28 L-88 -14 Z"
      /></clipPath
      ><clipPath clipPathUnits="userSpaceOnUse" id="clipPath19"
      ><path d="M-109 -14 L218 -14 L218 28 L-109 28 L-109 -14 Z"
      /></clipPath
      ><clipPath clipPathUnits="userSpaceOnUse" id="clipPath20"
      ><path d="M-130 -14 L260 -14 L260 28 L-130 28 L-130 -14 Z"
      /></clipPath
      ><clipPath clipPathUnits="userSpaceOnUse" id="clipPath21"
      ><path d="M-76 -14 L152 -14 L152 28 L-76 28 L-76 -14 Z"
      /></clipPath
      ><clipPath clipPathUnits="userSpaceOnUse" id="clipPath22"
      ><path d="M-94 -14 L188 -14 L188 28 L-94 28 L-94 -14 Z"
      /></clipPath
      ><clipPath clipPathUnits="userSpaceOnUse" id="clipPath23"
      ><path d="M0 0 L625 0 L625 104 L0 104 L0 0 Z"
      /></clipPath
      ><clipPath clipPathUnits="userSpaceOnUse" id="clipPath24"
      ><path d="M416 31 L416 45 L201 45 L201 31 ZM441 67 L441 81 L176 81 L176 67 ZM93 0 L93 8 L0 8 L0 104 L625 104 L625 0 Z"
      /></clipPath
      ><clipPath clipPathUnits="userSpaceOnUse" id="clipPath25"
      ><path d="M430 31 L430 45 L187 45 L187 31 ZM0 0 L0 104 L74 104 L74 94 L570 94 L570 104 L625 104 L625 0 Z"
      /></clipPath
      ><clipPath clipPathUnits="userSpaceOnUse" id="clipPath26"
      ><path d="M383 31 L383 45 L234 45 L234 31 ZM416 75 L416 89 L201 89 L201 75 ZM0 0 L0 104 L625 104 L625 0 Z"
      /></clipPath
      ><clipPath clipPathUnits="userSpaceOnUse" id="clipPath27"
      ><path d="M389 31 L389 45 L231 45 L231 31 ZM449 72 L449 86 L168 86 L168 72 ZM0 0 L0 104 L625 104 L625 0 Z"
      /></clipPath
      ><clipPath clipPathUnits="userSpaceOnUse" id="clipPath28"
      ><path d="M441 31 L441 45 L176 45 L176 31 ZM0 0 L0 104 L625 104 L625 0 L416 0 L416 9 L201 9 L201 0 Z"
      /></clipPath
      ><clipPath clipPathUnits="userSpaceOnUse" id="clipPath29"
      ><path d="M570 31 L570 45 L74 45 L74 31 ZM0 0 L0 104 L625 104 L625 0 Z"
      /></clipPath
      ><clipPath clipPathUnits="userSpaceOnUse" id="clipPath30"
      ><path d="M416 31 L416 45 L201 45 L201 31 ZM0 0 L0 104 L625 104 L625 0 L383 0 L383 1 L234 1 L234 0 Z"
      /></clipPath
      ><clipPath clipPathUnits="userSpaceOnUse" id="clipPath31"
      ><path d="M449 31 L449 45 L168 45 L168 31 ZM0 0 L0 104 L625 104 L625 0 L389 0 L389 4 L231 4 L231 0 Z"
      /></clipPath
      ><clipPath clipPathUnits="userSpaceOnUse" id="clipPath32"
      ><path d="M0 0 L423 0 L423 104 L0 104 L0 0 Z"
      /></clipPath
      ><clipPath clipPathUnits="userSpaceOnUse" id="clipPath33"
      ><path d="M283 28 L283 42 L139 42 L139 28 ZM0 0 L0 104 L423 104 L423 48 L399 48 L399 34 L423 34 L423 0 Z"
      /></clipPath
      ><clipPath clipPathUnits="userSpaceOnUse" id="clipPath34"
      ><path d="M271 31 L271 45 L144 45 L144 31 ZM0 0 L0 104 L423 104 L423 0 Z"
      /></clipPath
      ><clipPath clipPathUnits="userSpaceOnUse" id="clipPath35"
      ><path d="M0 0 L379 0 L379 104 L0 104 L0 0 Z"
      /></clipPath
      ><clipPath clipPathUnits="userSpaceOnUse" id="clipPath36"
      ><path d="M294 31 L294 45 L72 45 L72 31 ZM0 0 L0 104 L379 104 L379 0 Z"
      /></clipPath
      ><clipPath clipPathUnits="userSpaceOnUse" id="clipPath37"
      ><path d="M0 0 L134 0 L134 124 L0 124 L0 0 Z"
      /></clipPath
      ><clipPath clipPathUnits="userSpaceOnUse" id="clipPath38"
      ><path d="M0 0 L0 124 L134 124 L134 101 L95 101 L95 87 L134 87 L134 71 L94 71 L94 57 L134 57 L134 33 L91 33 L91 19 L134 19 L134 0 Z"
      /></clipPath
      ><clipPath clipPathUnits="userSpaceOnUse" id="clipPath39"
      ><path d="M0 0 L712 0 L712 104 L0 104 L0 0 Z"
      /></clipPath
      ><clipPath clipPathUnits="userSpaceOnUse" id="clipPath40"
      ><path d="M347 31 L347 45 L91 45 L91 31 ZM305 69 L305 83 L94 83 L94 69 ZM0 0 L0 104 L95 104 L95 99 L261 99 L261 104 L712 104 L712 0 L333 0 L333 6 L92 6 L92 0 Z"
      /></clipPath
      ><clipPath clipPathUnits="userSpaceOnUse" id="clipPath41"
      ><path d="M267 31 L267 45 L105 45 L105 31 ZM0 0 L0 104 L375 104 L375 93 L379 93 L379 65 L374 65 L374 51 L379 51 L379 0 Z"
      /></clipPath
      ><clipPath clipPathUnits="userSpaceOnUse" id="clipPath42"
      ><path d="M393 31 L393 45 L96 45 L96 31 ZM294 72 L294 86 L99 86 L99 72 ZM0 0 L0 104 L712 104 L712 0 L307 0 L307 8 L99 8 L99 0 Z"
      /></clipPath
      ><clipPath clipPathUnits="userSpaceOnUse" id="clipPath43"
      ><path d="M0 0 L137 0 L137 124 L0 124 L0 0 Z"
      /></clipPath
      ><clipPath clipPathUnits="userSpaceOnUse" id="clipPath44"
      ><path d="M0 0 L0 124 L137 124 L137 103 L96 103 L96 89 L137 89 L137 66 L99 66 L99 52 L137 52 L137 15 L95 15 L95 1 L137 1 L137 0 Z"
      /></clipPath
      ><clipPath clipPathUnits="userSpaceOnUse" id="clipPath45"
      ><path d="M0 0 L526 0 L526 104 L0 104 L0 0 Z"
      /></clipPath
      ><clipPath clipPathUnits="userSpaceOnUse" id="clipPath46"
      ><path d="M254 31 L254 45 L91 45 L91 31 ZM333 73 L333 87 L92 87 L92 73 ZM0 0 L0 104 L526 104 L526 0 Z"
      /></clipPath
      ><clipPath clipPathUnits="userSpaceOnUse" id="clipPath47"
      ><path d="M347 31 L347 45 L175 45 L175 31 ZM0 0 L0 12 L11 12 L11 26 L0 26 L0 104 L526 104 L526 0 Z"
      /></clipPath
      ><clipPath clipPathUnits="userSpaceOnUse" id="clipPath48"
      ><path d="M0 0 L0 124 L134 124 L134 106 L91 106 L91 92 L134 92 L134 67 L92 67 L92 53 L134 53 L134 25 L91 25 L91 11 L134 11 L134 0 Z"
      /></clipPath
      ><clipPath clipPathUnits="userSpaceOnUse" id="clipPath49"
      ><path d="M305 4 L305 18 L94 18 L94 4 ZM261 34 L261 48 L95 48 L95 34 ZM307 85 L307 99 L99 99 L99 85 ZM0 0 L0 104 L526 104 L526 0 Z"
      /></clipPath
      ><clipPath clipPathUnits="userSpaceOnUse" id="clipPath50"
      ><path d="M0 0 L0 124 L134 124 L134 66 L99 66 L99 52 L134 52 L134 25 L96 25 L96 11 L134 11 L134 0 Z"
      /></clipPath
      ><clipPath clipPathUnits="userSpaceOnUse" id="clipPath51"
      ><path d="M-195 -14 L390 -14 L390 28 L-195 28 L-195 -14 Z"
      /></clipPath
      ><clipPath clipPathUnits="userSpaceOnUse" id="clipPath52"
      ><path d="M-166 -14 L332 -14 L332 28 L-166 28 L-166 -14 Z"
      /></clipPath
      ><clipPath clipPathUnits="userSpaceOnUse" id="clipPath53"
      ><path d="M-241 -14 L482 -14 L482 28 L-241 28 L-241 -14 Z"
      /></clipPath
      ><clipPath clipPathUnits="userSpaceOnUse" id="clipPath54"
      ><path d="M-172 -14 L344 -14 L344 28 L-172 28 L-172 -14 Z"
      /></clipPath
      ><clipPath clipPathUnits="userSpaceOnUse" id="clipPath55"
      ><path d="M-163 -14 L326 -14 L326 28 L-163 28 L-163 -14 Z"
      /></clipPath
      ><clipPath clipPathUnits="userSpaceOnUse" id="clipPath56"
      ><path d="M-208 -14 L416 -14 L416 28 L-208 28 L-208 -14 Z"
      /></clipPath
      ><clipPath clipPathUnits="userSpaceOnUse" id="clipPath57"
      ><path d="M-297 -14 L594 -14 L594 28 L-297 28 L-297 -14 Z"
      /></clipPath
      ><clipPath clipPathUnits="userSpaceOnUse" id="clipPath58"
      ><path d="M-162 -14 L324 -14 L324 28 L-162 28 L-162 -14 Z"
      /></clipPath
      ><clipPath clipPathUnits="userSpaceOnUse" id="clipPath59"
      ><path d="M-256 -14 L512 -14 L512 28 L-256 28 L-256 -14 Z"
      /></clipPath
      ><clipPath clipPathUnits="userSpaceOnUse" id="clipPath60"
      ><path d="M-211 -14 L422 -14 L422 28 L-211 28 L-211 -14 Z"
      /></clipPath
      ><clipPath clipPathUnits="userSpaceOnUse" id="clipPath61"
      ><path d="M-222 -14 L444 -14 L444 28 L-222 28 L-222 -14 Z"
      /></clipPath
      ><clipPath clipPathUnits="userSpaceOnUse" id="clipPath62"
      ><path d="M-127 -14 L254 -14 L254 28 L-127 28 L-127 -14 Z"
      /></clipPath
      ><clipPath clipPathUnits="userSpaceOnUse" id="clipPath63"
      ><path d="M-144 -14 L288 -14 L288 28 L-144 28 L-144 -14 Z"
      /></clipPath
      ><clipPath clipPathUnits="userSpaceOnUse" id="clipPath64"
      ><path d="M-281 -14 L562 -14 L562 28 L-281 28 L-281 -14 Z"
      /></clipPath
      ><clipPath clipPathUnits="userSpaceOnUse" id="clipPath65"
      ><path d="M-215 -14 L430 -14 L430 28 L-215 28 L-215 -14 Z"
      /></clipPath
      ><clipPath clipPathUnits="userSpaceOnUse" id="clipPath66"
      ><path d="M-496 -14 L992 -14 L992 28 L-496 28 L-496 -14 Z"
      /></clipPath
      ><clipPath clipPathUnits="userSpaceOnUse" id="clipPath67"
      ><path d="M-265 -14 L530 -14 L530 28 L-265 28 L-265 -14 Z"
      /></clipPath
      ><clipPath clipPathUnits="userSpaceOnUse" id="clipPath68"
      ><path d="M-158 -14 L316 -14 L316 28 L-158 28 L-158 -14 Z"
      /></clipPath
      ><clipPath clipPathUnits="userSpaceOnUse" id="clipPath69"
      ><path d="M-149 -14 L298 -14 L298 28 L-149 28 L-149 -14 Z"
      /></clipPath
      ><clipPath clipPathUnits="userSpaceOnUse" id="clipPath70"
      ><path d="M-243 -14 L486 -14 L486 28 L-243 28 L-243 -14 Z"
      /></clipPath
    ></defs
    ><g fill="white" text-rendering="geometricPrecision" fill-opacity="1" stroke-opacity="1" stroke="white"
    ><rect x="0" width="1852" height="850" y="0" stroke="none"
    /></g
    ><g font-size="11px" transform="translate(19,2)" fill-opacity="1" fill="rgb(122,207,245)" text-rendering="geometricPrecision" image-rendering="optimizeQuality" font-family="sans-serif" stroke="rgb(122,207,245)" stroke-opacity="1"
    ><circle r="5" clip-path="url(#clipPath1)" cx="30" cy="5" stroke="none"
      /><rect x="26" width="8" height="794" y="49" clip-path="url(#clipPath1)" stroke="none"
    /></g
    ><g stroke-linecap="butt" font-size="11px" transform="translate(19,2)" fill-opacity="1" fill="black" text-rendering="geometricPrecision" image-rendering="optimizeQuality" font-family="sans-serif" stroke-linejoin="round" stroke="black" stroke-opacity="1" stroke-miterlimit="0"
    ><circle fill="none" r="5" clip-path="url(#clipPath1)" cx="30" cy="5"
      /><rect fill="none" x="26" width="8" height="794" y="49" clip-path="url(#clipPath1)"
      /><line y2="25" fill="none" x1="30" clip-path="url(#clipPath1)" x2="30" y1="10"
      /><line y2="36" fill="none" x1="30" clip-path="url(#clipPath1)" x2="21" y1="25"
      /><line y2="36" fill="none" x1="30" clip-path="url(#clipPath1)" x2="39" y1="25"
      /><line y2="16" fill="none" x1="21" clip-path="url(#clipPath1)" x2="39" y1="16"
    /></g
    ><g font-size="11px" transform="translate(540,2)" fill-opacity="1" fill="rgb(122,207,245)" text-rendering="geometricPrecision" image-rendering="optimizeQuality" font-family="sans-serif" stroke="rgb(122,207,245)" stroke-opacity="1"
    ><rect x="0" width="75" height="35" y="0" clip-path="url(#clipPath2)" stroke="none"
    /></g
    ><g stroke-linecap="butt" font-size="11px" transform="translate(540,2)" fill-opacity="1" fill="black" text-rendering="geometricPrecision" image-rendering="optimizeQuality" font-family="sans-serif" stroke-linejoin="round" stroke="black" stroke-opacity="1" stroke-miterlimit="0"
    ><rect fill="none" x="0" width="75" height="35" y="0" clip-path="url(#clipPath2)"
      /><line clip-path="url(#clipPath2)" fill="none" x1="37" x2="37" y1="35" y2="844" stroke-linejoin="bevel" stroke-dasharray="8,3"
    /></g
    ><g font-size="11px" transform="translate(574,93)" fill-opacity="1" fill="rgb(122,207,245)" text-rendering="geometricPrecision" image-rendering="optimizeQuality" font-family="sans-serif" stroke="rgb(122,207,245)" stroke-opacity="1"
    ><rect x="0" width="8" height="48" y="0" clip-path="url(#clipPath3)" stroke="none"
    /></g
    ><g stroke-linecap="butt" font-size="11px" transform="translate(574,93)" fill-opacity="1" fill="black" text-rendering="geometricPrecision" image-rendering="optimizeQuality" font-family="sans-serif" stroke-linejoin="round" stroke="black" stroke-opacity="1" stroke-miterlimit="0"
    ><rect fill="none" x="0" width="8" height="48" y="0" clip-path="url(#clipPath3)"
    /></g
    ><g font-size="11px" transform="translate(574,214)" fill-opacity="1" fill="rgb(122,207,245)" text-rendering="geometricPrecision" image-rendering="optimizeQuality" font-family="sans-serif" stroke="rgb(122,207,245)" stroke-opacity="1"
    ><rect x="0" width="8" height="75" y="0" clip-path="url(#clipPath4)" stroke="none"
    /></g
    ><g stroke-linecap="butt" font-size="11px" transform="translate(574,214)" fill-opacity="1" fill="black" text-rendering="geometricPrecision" image-rendering="optimizeQuality" font-family="sans-serif" stroke-linejoin="round" stroke="black" stroke-opacity="1" stroke-miterlimit="0"
    ><rect fill="none" x="0" width="8" height="75" y="0" clip-path="url(#clipPath4)"
    /></g
    ><g font-size="11px" transform="translate(574,353)" fill-opacity="1" fill="rgb(122,207,245)" text-rendering="geometricPrecision" image-rendering="optimizeQuality" font-family="sans-serif" stroke="rgb(122,207,245)" stroke-opacity="1"
    ><rect x="0" width="8" height="56" y="0" clip-path="url(#clipPath5)" stroke="none"
    /></g
    ><g stroke-linecap="butt" font-size="11px" transform="translate(574,353)" fill-opacity="1" fill="black" text-rendering="geometricPrecision" image-rendering="optimizeQuality" font-family="sans-serif" stroke-linejoin="round" stroke="black" stroke-opacity="1" stroke-miterlimit="0"
    ><rect fill="none" x="0" width="8" height="56" y="0" clip-path="url(#clipPath5)"
    /></g
    ><g font-size="11px" transform="translate(574,474)" fill-opacity="1" fill="rgb(122,207,245)" text-rendering="geometricPrecision" image-rendering="optimizeQuality" font-family="sans-serif" stroke="rgb(122,207,245)" stroke-opacity="1"
    ><rect x="0" width="8" height="53" y="0" clip-path="url(#clipPath6)" stroke="none"
    /></g
    ><g stroke-linecap="butt" font-size="11px" transform="translate(574,474)" fill-opacity="1" fill="black" text-rendering="geometricPrecision" image-rendering="optimizeQuality" font-family="sans-serif" stroke-linejoin="round" stroke="black" stroke-opacity="1" stroke-miterlimit="0"
    ><rect fill="none" x="0" width="8" height="53" y="0" clip-path="url(#clipPath6)"
    /></g
    ><g font-size="11px" transform="translate(840,2)" fill-opacity="1" fill="rgb(122,207,245)" text-rendering="geometricPrecision" image-rendering="optimizeQuality" font-family="sans-serif" stroke="rgb(122,207,245)" stroke-opacity="1"
    ><rect x="0" width="129" height="35" y="0" clip-path="url(#clipPath7)" stroke="none"
    /></g
    ><g stroke-linecap="butt" font-size="11px" transform="translate(840,2)" fill-opacity="1" fill="black" text-rendering="geometricPrecision" image-rendering="optimizeQuality" font-family="sans-serif" stroke-linejoin="round" stroke="black" stroke-opacity="1" stroke-miterlimit="0"
    ><rect fill="none" x="0" width="129" height="35" y="0" clip-path="url(#clipPath7)"
      /><line clip-path="url(#clipPath7)" fill="none" x1="64" x2="64" y1="35" y2="844" stroke-linejoin="bevel" stroke-dasharray="8,3"
    /></g
    ><g font-size="11px" transform="translate(901,356)" fill-opacity="1" fill="rgb(122,207,245)" text-rendering="geometricPrecision" image-rendering="optimizeQuality" font-family="sans-serif" stroke="rgb(122,207,245)" stroke-opacity="1"
    ><rect x="0" width="8" height="67" y="0" clip-path="url(#clipPath8)" stroke="none"
    /></g
    ><g stroke-linecap="butt" font-size="11px" transform="translate(901,356)" fill-opacity="1" fill="black" text-rendering="geometricPrecision" image-rendering="optimizeQuality" font-family="sans-serif" stroke-linejoin="round" stroke="black" stroke-opacity="1" stroke-miterlimit="0"
    ><rect fill="none" x="0" width="8" height="67" y="0" clip-path="url(#clipPath8)"
    /></g
    ><g font-size="11px" transform="translate(901,488)" fill-opacity="1" fill="rgb(122,207,245)" text-rendering="geometricPrecision" image-rendering="optimizeQuality" font-family="sans-serif" stroke="rgb(122,207,245)" stroke-opacity="1"
    ><rect x="0" width="8" height="350" y="0" clip-path="url(#clipPath9)" stroke="none"
    /></g
    ><g stroke-linecap="butt" font-size="11px" transform="translate(901,488)" fill-opacity="1" fill="black" text-rendering="geometricPrecision" image-rendering="optimizeQuality" font-family="sans-serif" stroke-linejoin="round" stroke="black" stroke-opacity="1" stroke-miterlimit="0"
    ><rect fill="none" x="0" width="8" height="350" y="0" clip-path="url(#clipPath9)"
    /></g
    ><g font-size="11px" transform="translate(1134,2)" fill-opacity="1" fill="rgb(122,207,245)" text-rendering="geometricPrecision" image-rendering="optimizeQuality" font-family="sans-serif" stroke="rgb(122,207,245)" stroke-opacity="1"
    ><rect x="0" width="108" height="35" y="0" clip-path="url(#clipPath10)" stroke="none"
    /></g
    ><g stroke-linecap="butt" font-size="11px" transform="translate(1134,2)" fill-opacity="1" fill="black" text-rendering="geometricPrecision" image-rendering="optimizeQuality" font-family="sans-serif" stroke-linejoin="round" stroke="black" stroke-opacity="1" stroke-miterlimit="0"
    ><rect fill="none" x="0" width="108" height="35" y="0" clip-path="url(#clipPath10)"
      /><line clip-path="url(#clipPath10)" fill="none" x1="54" x2="54" y1="35" y2="844" stroke-linejoin="bevel" stroke-dasharray="8,3"
    /></g
    ><g font-size="11px" transform="translate(1184,359)" fill-opacity="1" fill="rgb(122,207,245)" text-rendering="geometricPrecision" image-rendering="optimizeQuality" font-family="sans-serif" stroke="rgb(122,207,245)" stroke-opacity="1"
    ><rect x="0" width="8" height="52" y="0" clip-path="url(#clipPath11)" stroke="none"
    /></g
    ><g stroke-linecap="butt" font-size="11px" transform="translate(1184,359)" fill-opacity="1" fill="black" text-rendering="geometricPrecision" image-rendering="optimizeQuality" font-family="sans-serif" stroke-linejoin="round" stroke="black" stroke-opacity="1" stroke-miterlimit="0"
    ><rect fill="none" x="0" width="8" height="52" y="0" clip-path="url(#clipPath11)"
    /></g
    ><g font-size="11px" transform="translate(1184,495)" fill-opacity="1" fill="rgb(122,207,245)" text-rendering="geometricPrecision" image-rendering="optimizeQuality" font-family="sans-serif" stroke="rgb(122,207,245)" stroke-opacity="1"
    ><rect x="0" width="8" height="331" y="0" clip-path="url(#clipPath12)" stroke="none"
    /></g
    ><g stroke-linecap="butt" font-size="11px" transform="translate(1184,495)" fill-opacity="1" fill="black" text-rendering="geometricPrecision" image-rendering="optimizeQuality" font-family="sans-serif" stroke-linejoin="round" stroke="black" stroke-opacity="1" stroke-miterlimit="0"
    ><rect fill="none" x="0" width="8" height="331" y="0" clip-path="url(#clipPath12)"
    /></g
    ><g font-size="11px" transform="translate(1760,2)" fill-opacity="1" fill="rgb(122,207,245)" text-rendering="geometricPrecision" image-rendering="optimizeQuality" font-family="sans-serif" stroke="rgb(122,207,245)" stroke-opacity="1"
    ><rect x="0" width="87" height="35" y="0" clip-path="url(#clipPath13)" stroke="none"
    /></g
    ><g stroke-linecap="butt" font-size="11px" transform="translate(1760,2)" fill-opacity="1" fill="black" text-rendering="geometricPrecision" image-rendering="optimizeQuality" font-family="sans-serif" stroke-linejoin="round" stroke="black" stroke-opacity="1" stroke-miterlimit="0"
    ><rect fill="none" x="0" width="87" height="35" y="0" clip-path="url(#clipPath13)"
      /><line clip-path="url(#clipPath13)" fill="none" x1="43" x2="43" y1="35" y2="844" stroke-linejoin="bevel" stroke-dasharray="8,3"
    /></g
    ><g font-size="11px" transform="translate(1188,628)" fill-opacity="1" fill="rgb(122,207,245)" text-rendering="geometricPrecision" image-rendering="optimizeQuality" font-family="sans-serif" stroke="rgb(122,207,245)" stroke-opacity="1"
    ><rect x="0" width="8" height="12" y="0" clip-path="url(#clipPath14)" stroke="none"
    /></g
    ><g stroke-linecap="butt" font-size="11px" transform="translate(1188,628)" fill-opacity="1" fill="black" text-rendering="geometricPrecision" image-rendering="optimizeQuality" font-family="sans-serif" stroke-linejoin="round" stroke="black" stroke-opacity="1" stroke-miterlimit="0"
    ><rect fill="none" x="0" width="8" height="12" y="0" clip-path="url(#clipPath14)"
    /></g
    ><g font-size="11px" transform="translate(1800,596)" fill-opacity="1" fill="rgb(122,207,245)" text-rendering="geometricPrecision" image-rendering="optimizeQuality" font-family="sans-serif" stroke="rgb(122,207,245)" stroke-opacity="1"
    ><rect x="0" width="8" height="12" y="0" clip-path="url(#clipPath14)" stroke="none"
    /></g
    ><g stroke-linecap="butt" font-size="11px" transform="translate(1800,596)" fill-opacity="1" fill="black" text-rendering="geometricPrecision" image-rendering="optimizeQuality" font-family="sans-serif" stroke-linejoin="round" stroke="black" stroke-opacity="1" stroke-miterlimit="0"
    ><rect fill="none" x="0" width="8" height="12" y="0" clip-path="url(#clipPath14)"
    /></g
    ><g font-size="11px" transform="translate(1800,752)" fill-opacity="1" fill="rgb(122,207,245)" text-rendering="geometricPrecision" image-rendering="optimizeQuality" font-family="sans-serif" stroke="rgb(122,207,245)" stroke-opacity="1"
    ><rect x="0" width="8" height="12" y="0" clip-path="url(#clipPath14)" stroke="none"
    /></g
    ><g stroke-linecap="butt" font-size="11px" transform="translate(1800,752)" fill-opacity="1" fill="black" text-rendering="geometricPrecision" image-rendering="optimizeQuality" font-family="sans-serif" stroke-linejoin="round" stroke="black" stroke-opacity="1" stroke-miterlimit="0"
    ><rect fill="none" x="0" width="8" height="12" y="0" clip-path="url(#clipPath14)"
    /></g
    ><g font-size="11px" transform="translate(1188,714)" fill-opacity="1" fill="rgb(122,207,245)" text-rendering="geometricPrecision" image-rendering="optimizeQuality" font-family="sans-serif" stroke="rgb(122,207,245)" stroke-opacity="1"
    ><rect x="0" width="8" height="12" y="0" clip-path="url(#clipPath14)" stroke="none"
    /></g
    ><g stroke-linecap="butt" font-size="11px" transform="translate(1188,714)" fill-opacity="1" fill="black" text-rendering="geometricPrecision" image-rendering="optimizeQuality" font-family="sans-serif" stroke-linejoin="round" stroke="black" stroke-opacity="1" stroke-miterlimit="0"
    ><rect fill="none" x="0" width="8" height="12" y="0" clip-path="url(#clipPath14)"
    /></g
    ><g font-size="11px" transform="translate(1577,2)" fill-opacity="1" fill="rgb(122,207,245)" text-rendering="geometricPrecision" image-rendering="optimizeQuality" font-family="sans-serif" stroke="rgb(122,207,245)" stroke-opacity="1"
    ><rect x="0" width="81" height="35" y="0" clip-path="url(#clipPath15)" stroke="none"
    /></g
    ><g stroke-linecap="butt" font-size="11px" transform="translate(1577,2)" fill-opacity="1" fill="black" text-rendering="geometricPrecision" image-rendering="optimizeQuality" font-family="sans-serif" stroke-linejoin="round" stroke="black" stroke-opacity="1" stroke-miterlimit="0"
    ><rect fill="none" x="0" width="81" height="35" y="0" clip-path="url(#clipPath15)"
      /><line clip-path="url(#clipPath15)" fill="none" x1="40" x2="40" y1="35" y2="844" stroke-linejoin="bevel" stroke-dasharray="8,3"
    /></g
    ><g font-size="11px" transform="translate(1614,515)" fill-opacity="1" fill="rgb(122,207,245)" text-rendering="geometricPrecision" image-rendering="optimizeQuality" font-family="sans-serif" stroke="rgb(122,207,245)" stroke-opacity="1"
    ><rect x="0" width="8" height="12" y="0" clip-path="url(#clipPath14)" stroke="none"
    /></g
    ><g stroke-linecap="butt" font-size="11px" transform="translate(1614,515)" fill-opacity="1" fill="black" text-rendering="geometricPrecision" image-rendering="optimizeQuality" font-family="sans-serif" stroke-linejoin="round" stroke="black" stroke-opacity="1" stroke-miterlimit="0"
    ><rect fill="none" x="0" width="8" height="12" y="0" clip-path="url(#clipPath14)"
    /></g
    ><g font-size="11px" transform="translate(1614,378)" fill-opacity="1" fill="rgb(122,207,245)" text-rendering="geometricPrecision" image-rendering="optimizeQuality" font-family="sans-serif" stroke="rgb(122,207,245)" stroke-opacity="1"
    ><rect x="0" width="8" height="12" y="0" clip-path="url(#clipPath14)" stroke="none"
    /></g
    ><g stroke-linecap="butt" font-size="11px" transform="translate(1614,378)" fill-opacity="1" fill="black" text-rendering="geometricPrecision" image-rendering="optimizeQuality" font-family="sans-serif" stroke-linejoin="round" stroke="black" stroke-opacity="1" stroke-miterlimit="0"
    ><rect fill="none" x="0" width="8" height="12" y="0" clip-path="url(#clipPath14)"
    /></g
    ><g font-size="11px" transform="translate(1188,555)" fill-opacity="1" fill="rgb(122,207,245)" text-rendering="geometricPrecision" image-rendering="optimizeQuality" font-family="sans-serif" stroke="rgb(122,207,245)" stroke-opacity="1"
    ><rect x="0" width="8" height="12" y="0" clip-path="url(#clipPath14)" stroke="none"
    /></g
    ><g stroke-linecap="butt" font-size="11px" transform="translate(1188,555)" fill-opacity="1" fill="black" text-rendering="geometricPrecision" image-rendering="optimizeQuality" font-family="sans-serif" stroke-linejoin="round" stroke="black" stroke-opacity="1" stroke-miterlimit="0"
    ><rect fill="none" x="0" width="8" height="12" y="0" clip-path="url(#clipPath14)"
    /></g
    ><g font-size="11px" transform="translate(1614,661)" fill-opacity="1" fill="rgb(122,207,245)" text-rendering="geometricPrecision" image-rendering="optimizeQuality" font-family="sans-serif" stroke="rgb(122,207,245)" stroke-opacity="1"
    ><rect x="0" width="8" height="16" y="0" clip-path="url(#clipPath16)" stroke="none"
    /></g
    ><g stroke-linecap="butt" font-size="11px" transform="translate(1614,661)" fill-opacity="1" fill="black" text-rendering="geometricPrecision" image-rendering="optimizeQuality" font-family="sans-serif" stroke-linejoin="round" stroke="black" stroke-opacity="1" stroke-miterlimit="0"
    ><rect fill="none" x="0" width="8" height="16" y="0" clip-path="url(#clipPath16)"
    /></g
    ><g font-size="11px" transform="translate(1188,792)" fill-opacity="1" fill="rgb(122,207,245)" text-rendering="geometricPrecision" image-rendering="optimizeQuality" font-family="sans-serif" stroke="rgb(122,207,245)" stroke-opacity="1"
    ><rect x="0" width="8" height="12" y="0" clip-path="url(#clipPath14)" stroke="none"
    /></g
    ><g stroke-linecap="butt" font-size="11px" transform="translate(1188,792)" fill-opacity="1" fill="black" text-rendering="geometricPrecision" image-rendering="optimizeQuality" font-family="sans-serif" stroke-linejoin="round" stroke="black" stroke-opacity="1" stroke-miterlimit="0"
    ><rect fill="none" x="0" width="8" height="12" y="0" clip-path="url(#clipPath14)"
    /></g
    ><g font-size="11px" transform="translate(1577,2)" fill-opacity="1" fill="black" text-rendering="geometricPrecision" image-rendering="optimizeQuality" font-family="sans-serif" stroke="black" stroke-opacity="1"
    ><text x="11" xml:space="preserve" y="11" clip-path="url(#clipPath17)" stroke="none"
      >employee :</text
      ><text x="15" xml:space="preserve" y="25" clip-path="url(#clipPath17)" stroke="none"
      >Employee</text
    ></g
    ><g font-size="11px" transform="translate(1760,2)" fill-opacity="1" fill="black" text-rendering="geometricPrecision" image-rendering="optimizeQuality" font-family="sans-serif" stroke="black" stroke-opacity="1"
    ><text x="8" xml:space="preserve" y="11" clip-path="url(#clipPath18)" stroke="none"
      >: AuthFacade</text
    ></g
    ><g font-size="11px" transform="translate(1134,2)" fill-opacity="1" fill="black" text-rendering="geometricPrecision" image-rendering="optimizeQuality" font-family="sans-serif" stroke="black" stroke-opacity="1"
    ><text x="15" xml:space="preserve" y="11" clip-path="url(#clipPath19)" stroke="none"
      >EmployeeStore</text
    ></g
    ><g font-size="11px" transform="translate(840,2)" fill-opacity="1" fill="black" text-rendering="geometricPrecision" image-rendering="optimizeQuality" font-family="sans-serif" stroke="black" stroke-opacity="1"
    ><text x="16" xml:space="preserve" y="11" clip-path="url(#clipPath20)" stroke="none"
      >: AdminController</text
    ></g
    ><g font-size="11px" transform="translate(540,2)" fill-opacity="1" fill="black" text-rendering="geometricPrecision" image-rendering="optimizeQuality" font-family="sans-serif" stroke="black" stroke-opacity="1"
    ><text x="11" xml:space="preserve" y="11" clip-path="url(#clipPath21)" stroke="none"
      >: AdminUI</text
    ></g
    ><g font-size="11px" transform="translate(2,37)" fill-opacity="1" fill="black" text-rendering="geometricPrecision" image-rendering="optimizeQuality" font-family="sans-serif" stroke="black" stroke-opacity="1"
    ><text x="10" xml:space="preserve" y="11" clip-path="url(#clipPath22)" stroke="none"
      >Administrator</text
    ></g
    ><g stroke-linecap="butt" font-size="11px" transform="translate(3,43)" fill-opacity="1" fill="black" text-rendering="geometricPrecision" image-rendering="optimizeQuality" font-family="sans-serif" stroke-linejoin="round" stroke="black" stroke-opacity="1"
    ><line y2="50" fill="none" x1="50" clip-path="url(#clipPath24)" x2="571" y1="50"
      /><polygon points=" 571 50 559 44 559 56" clip-path="url(#clipPath24)" stroke="none"
      /><polygon fill="none" points=" 571 50 559 44 559 56" clip-path="url(#clipPath24)"
    /></g
    ><g stroke-linecap="butt" font-size="11px" transform="translate(3,164)" fill-opacity="1" fill="black" text-rendering="geometricPrecision" image-rendering="optimizeQuality" font-family="sans-serif" stroke-linejoin="round" stroke="black" stroke-opacity="1"
    ><line y2="50" fill="none" x1="50" clip-path="url(#clipPath25)" x2="571" y1="50"
      /><polygon points=" 571 50 559 44 559 56" clip-path="url(#clipPath25)" stroke="none"
      /><polygon fill="none" points=" 571 50 559 44 559 56" clip-path="url(#clipPath25)"
    /></g
    ><g stroke-linecap="butt" font-size="11px" transform="translate(3,303)" fill-opacity="1" fill="black" text-rendering="geometricPrecision" image-rendering="optimizeQuality" font-family="sans-serif" stroke-linejoin="round" stroke="black" stroke-opacity="1"
    ><line y2="50" fill="none" x1="50" clip-path="url(#clipPath26)" x2="571" y1="50"
      /><polygon points=" 571 50 559 44 559 56" clip-path="url(#clipPath26)" stroke="none"
      /><polygon fill="none" points=" 571 50 559 44 559 56" clip-path="url(#clipPath26)"
    /></g
    ><g stroke-linecap="butt" font-size="11px" transform="translate(3,424)" fill-opacity="1" fill="black" text-rendering="geometricPrecision" image-rendering="optimizeQuality" font-family="sans-serif" stroke-linejoin="round" stroke="black" stroke-opacity="1"
    ><line y2="50" fill="none" x1="50" clip-path="url(#clipPath27)" x2="571" y1="50"
      /><polygon points=" 571 50 559 44 559 56" clip-path="url(#clipPath27)" stroke="none"
      /><polygon fill="none" points=" 571 50 559 44 559 56" clip-path="url(#clipPath27)"
    /></g
    ><g fill-opacity="1" text-rendering="geometricPrecision" stroke="black" stroke-linecap="butt" transform="translate(3,79)" stroke-miterlimit="0" stroke-opacity="1" fill="black" stroke-dasharray="8,3" font-family="sans-serif" stroke-linejoin="round" font-size="11px" image-rendering="optimizeQuality"
    ><line y2="50" fill="none" x1="571" clip-path="url(#clipPath28)" x2="50" y1="50"
      /><line clip-path="url(#clipPath28)" fill="none" x1="50" x2="62" y1="50" y2="56" stroke-dasharray="none" stroke-miterlimit="10"
      /><line clip-path="url(#clipPath28)" fill="none" x1="50" x2="62" y1="50" y2="44" stroke-dasharray="none" stroke-miterlimit="10"
    /></g
    ><g fill-opacity="1" text-rendering="geometricPrecision" stroke="black" stroke-linecap="butt" transform="translate(3,227)" stroke-miterlimit="0" stroke-opacity="1" fill="black" stroke-dasharray="8,3" font-family="sans-serif" stroke-linejoin="round" font-size="11px" image-rendering="optimizeQuality"
    ><line y2="50" fill="none" x1="571" clip-path="url(#clipPath29)" x2="50" y1="50"
      /><line clip-path="url(#clipPath29)" fill="none" x1="50" x2="62" y1="50" y2="56" stroke-dasharray="none" stroke-miterlimit="10"
      /><line clip-path="url(#clipPath29)" fill="none" x1="50" x2="62" y1="50" y2="44" stroke-dasharray="none" stroke-miterlimit="10"
    /></g
    ><g fill-opacity="1" text-rendering="geometricPrecision" stroke="black" stroke-linecap="butt" transform="translate(3,347)" stroke-miterlimit="0" stroke-opacity="1" fill="black" stroke-dasharray="8,3" font-family="sans-serif" stroke-linejoin="round" font-size="11px" image-rendering="optimizeQuality"
    ><line y2="50" fill="none" x1="571" clip-path="url(#clipPath30)" x2="50" y1="50"
      /><line clip-path="url(#clipPath30)" fill="none" x1="50" x2="62" y1="50" y2="56" stroke-dasharray="none" stroke-miterlimit="10"
      /><line clip-path="url(#clipPath30)" fill="none" x1="50" x2="62" y1="50" y2="44" stroke-dasharray="none" stroke-miterlimit="10"
    /></g
    ><g fill-opacity="1" text-rendering="geometricPrecision" stroke="black" stroke-linecap="butt" transform="translate(3,465)" stroke-miterlimit="0" stroke-opacity="1" fill="black" stroke-dasharray="8,3" font-family="sans-serif" stroke-linejoin="round" font-size="11px" image-rendering="optimizeQuality"
    ><line y2="50" fill="none" x1="571" clip-path="url(#clipPath31)" x2="50" y1="50"
      /><line clip-path="url(#clipPath31)" fill="none" x1="50" x2="62" y1="50" y2="56" stroke-dasharray="none" stroke-miterlimit="10"
      /><line clip-path="url(#clipPath31)" fill="none" x1="50" x2="62" y1="50" y2="44" stroke-dasharray="none" stroke-miterlimit="10"
    /></g
    ><g stroke-linecap="butt" font-size="11px" transform="translate(532,306)" fill-opacity="1" fill="black" text-rendering="geometricPrecision" image-rendering="optimizeQuality" font-family="sans-serif" stroke-linejoin="round" stroke="black" stroke-opacity="1"
    ><line y2="50" fill="none" x1="50" clip-path="url(#clipPath33)" x2="369" y1="50"
      /><polygon points=" 369 50 357 44 357 56" clip-path="url(#clipPath33)" stroke="none"
      /><polygon fill="none" points=" 369 50 357 44 357 56" clip-path="url(#clipPath33)"
    /></g
    ><g stroke-linecap="butt" font-size="11px" transform="translate(532,442)" fill-opacity="1" fill="black" text-rendering="geometricPrecision" image-rendering="optimizeQuality" font-family="sans-serif" stroke-linejoin="round" stroke="black" stroke-opacity="1"
    ><line y2="50" fill="none" x1="50" clip-path="url(#clipPath34)" x2="369" y1="50"
      /><polygon points=" 369 50 357 44 357 56" clip-path="url(#clipPath34)" stroke="none"
      /><polygon fill="none" points=" 369 50 357 44 357 56" clip-path="url(#clipPath34)"
    /></g
    ><g stroke-linecap="butt" font-size="11px" transform="translate(859,309)" fill-opacity="1" fill="black" text-rendering="geometricPrecision" image-rendering="optimizeQuality" font-family="sans-serif" stroke-linejoin="round" stroke="black" stroke-opacity="1"
    ><line y2="50" fill="none" x1="50" clip-path="url(#clipPath36)" x2="325" y1="50"
      /><polygon points=" 325 50 313 44 313 56" clip-path="url(#clipPath36)" stroke="none"
      /><polygon fill="none" points=" 325 50 313 44 313 56" clip-path="url(#clipPath36)"
    /></g
    ><g stroke-linecap="butt" font-size="11px" transform="translate(1142,558)" fill-opacity="1" fill="black" text-rendering="geometricPrecision" image-rendering="optimizeQuality" font-family="sans-serif" stroke-linejoin="round" stroke="black" stroke-opacity="1"
    ><line y2="50" fill="none" x1="50" clip-path="url(#clipPath38)" x2="80" y1="50"
      /><line y2="70" fill="none" x1="80" clip-path="url(#clipPath38)" x2="80" y1="50"
      /><line y2="70" fill="none" x1="80" clip-path="url(#clipPath38)" x2="54" y1="70"
      /><polygon points=" 54 70 66 76 66 64" clip-path="url(#clipPath38)" stroke="none"
      /><polygon fill="none" points=" 54 70 66 76 66 64" clip-path="url(#clipPath38)"
    /></g
    ><g stroke-linecap="butt" font-size="11px" transform="translate(1142,546)" fill-opacity="1" fill="black" text-rendering="geometricPrecision" image-rendering="optimizeQuality" font-family="sans-serif" stroke-linejoin="round" stroke="black" stroke-opacity="1"
    ><line y2="50" fill="none" x1="50" clip-path="url(#clipPath40)" x2="658" y1="50"
      /><polygon points=" 658 50 646 44 646 56" clip-path="url(#clipPath40)" stroke="none"
      /><polygon fill="none" points=" 658 50 646 44 646 56" clip-path="url(#clipPath40)"
    /></g
    ><g stroke-linecap="butt" font-size="11px" transform="translate(859,445)" fill-opacity="1" fill="black" text-rendering="geometricPrecision" image-rendering="optimizeQuality" font-family="sans-serif" stroke-linejoin="round" stroke="black" stroke-opacity="1"
    ><line y2="50" fill="none" x1="50" clip-path="url(#clipPath41)" x2="325" y1="50"
      /><polygon points=" 325 50 313 44 313 56" clip-path="url(#clipPath41)" stroke="none"
      /><polygon fill="none" points=" 325 50 313 44 313 56" clip-path="url(#clipPath41)"
    /></g
    ><g stroke-linecap="butt" font-size="11px" transform="translate(1142,702)" fill-opacity="1" fill="black" text-rendering="geometricPrecision" image-rendering="optimizeQuality" font-family="sans-serif" stroke-linejoin="round" stroke="black" stroke-opacity="1"
    ><line y2="50" fill="none" x1="50" clip-path="url(#clipPath42)" x2="658" y1="50"
      /><polygon points=" 658 50 646 44 646 56" clip-path="url(#clipPath42)" stroke="none"
      /><polygon fill="none" points=" 658 50 646 44 646 56" clip-path="url(#clipPath42)"
    /></g
    ><g stroke-linecap="butt" font-size="11px" transform="translate(1142,644)" fill-opacity="1" fill="black" text-rendering="geometricPrecision" image-rendering="optimizeQuality" font-family="sans-serif" stroke-linejoin="round" stroke="black" stroke-opacity="1"
    ><line y2="50" fill="none" x1="50" clip-path="url(#clipPath44)" x2="83" y1="50"
      /><line y2="70" fill="none" x1="83" clip-path="url(#clipPath44)" x2="83" y1="50"
      /><line y2="70" fill="none" x1="83" clip-path="url(#clipPath44)" x2="54" y1="70"
      /><polygon points=" 54 70 66 76 66 64" clip-path="url(#clipPath44)" stroke="none"
      /><polygon fill="none" points=" 54 70 66 76 66 64" clip-path="url(#clipPath44)"
    /></g
    ><g stroke-linecap="butt" font-size="11px" transform="translate(1142,465)" fill-opacity="1" fill="black" text-rendering="geometricPrecision" image-rendering="optimizeQuality" font-family="sans-serif" stroke-linejoin="round" stroke="black" stroke-opacity="1"
    ><line y2="50" fill="none" x1="50" clip-path="url(#clipPath46)" x2="472" y1="50"
      /><polygon points=" 472 50 460 44 460 56" clip-path="url(#clipPath46)" stroke="none"
      /><polygon fill="none" points=" 472 50 460 44 460 56" clip-path="url(#clipPath46)"
    /></g
    ><g stroke-linecap="butt" font-size="11px" transform="translate(1142,328)" fill-opacity="1" fill="black" text-rendering="geometricPrecision" image-rendering="optimizeQuality" font-family="sans-serif" stroke-linejoin="round" stroke="black" stroke-opacity="1"
    ><line y2="50" fill="none" x1="50" clip-path="url(#clipPath47)" x2="472" y1="50"
      /><polygon points=" 472 50 460 44 460 56" clip-path="url(#clipPath47)" stroke="none"
      /><polygon fill="none" points=" 472 50 460 44 460 56" clip-path="url(#clipPath47)"
    /></g
    ><g stroke-linecap="butt" font-size="11px" transform="translate(1142,485)" fill-opacity="1" fill="black" text-rendering="geometricPrecision" image-rendering="optimizeQuality" font-family="sans-serif" stroke-linejoin="round" stroke="black" stroke-opacity="1"
    ><line y2="50" fill="none" x1="50" clip-path="url(#clipPath48)" x2="80" y1="50"
      /><line y2="70" fill="none" x1="80" clip-path="url(#clipPath48)" x2="80" y1="50"
      /><line y2="70" fill="none" x1="80" clip-path="url(#clipPath48)" x2="54" y1="70"
      /><polygon points=" 54 70 66 76 66 64" clip-path="url(#clipPath48)" stroke="none"
      /><polygon fill="none" points=" 54 70 66 76 66 64" clip-path="url(#clipPath48)"
    /></g
    ><g stroke-linecap="butt" font-size="11px" transform="translate(1142,611)" fill-opacity="1" fill="black" text-rendering="geometricPrecision" image-rendering="optimizeQuality" font-family="sans-serif" stroke-linejoin="round" stroke="black" stroke-opacity="1"
    ><line y2="50" fill="none" x1="50" clip-path="url(#clipPath49)" x2="472" y1="50"
      /><polygon points=" 472 50 460 44 460 56" clip-path="url(#clipPath49)" stroke="none"
      /><polygon fill="none" points=" 472 50 460 44 460 56" clip-path="url(#clipPath49)"
    /></g
    ><g stroke-linecap="butt" font-size="11px" transform="translate(1142,722)" fill-opacity="1" fill="black" text-rendering="geometricPrecision" image-rendering="optimizeQuality" font-family="sans-serif" stroke-linejoin="round" stroke="black" stroke-opacity="1"
    ><line y2="50" fill="none" x1="50" clip-path="url(#clipPath50)" x2="80" y1="50"
      /><line y2="70" fill="none" x1="80" clip-path="url(#clipPath50)" x2="80" y1="50"
      /><line y2="70" fill="none" x1="80" clip-path="url(#clipPath50)" x2="54" y1="70"
      /><polygon points=" 54 70 66 76 66 64" clip-path="url(#clipPath50)" stroke="none"
      /><polygon fill="none" points=" 54 70 66 76 66 64" clip-path="url(#clipPath50)"
    /></g
    ><g font-size="11px" transform="translate(1241,774)" fill-opacity="1" fill="white" text-rendering="geometricPrecision" image-rendering="optimizeQuality" font-family="sans-serif" stroke="white" stroke-opacity="1"
    ><rect x="0" width="195" height="14" y="0" clip-path="url(#clipPath51)" stroke="none"
      /><text fill="black" x="10" xml:space="preserve" y="11" clip-path="url(#clipPath51)" stroke="none"
      >4.1.1.8: addEmployee(employee)</text
    ></g
    ><g font-size="11px" transform="translate(1237,645)" fill-opacity="1" fill="white" text-rendering="geometricPrecision" image-rendering="optimizeQuality" font-family="sans-serif" stroke="white" stroke-opacity="1"
    ><rect x="0" width="166" height="14" y="0" clip-path="url(#clipPath52)" stroke="none"
      /><text fill="black" x="9" xml:space="preserve" y="11" clip-path="url(#clipPath52)" stroke="none"
      >4.1.1.5: name = getName()</text
    ></g
    ><g font-size="11px" transform="translate(1234,538)" fill-opacity="1" fill="white" text-rendering="geometricPrecision" image-rendering="optimizeQuality" font-family="sans-serif" stroke="white" stroke-opacity="1"
    ><rect x="0" width="241" height="14" y="0" clip-path="url(#clipPath53)" stroke="none"
      /><text fill="black" x="10" xml:space="preserve" y="11" clip-path="url(#clipPath53)" stroke="none"
      >4.1.1.2: validateEmployeeData(employee)</text
    ></g
    ><g font-size="11px" transform="translate(1317,359)" fill-opacity="1" fill="white" text-rendering="geometricPrecision" image-rendering="optimizeQuality" font-family="sans-serif" stroke="white" stroke-opacity="1"
    ><rect x="0" width="172" height="14" y="0" clip-path="url(#clipPath54)" stroke="none"
      /><text fill="black" x="10" xml:space="preserve" y="11" clip-path="url(#clipPath54)" stroke="none"
      >3.1.1.1: roleID = getRoleID()</text
    ></g
    ><g font-size="11px" transform="translate(1233,496)" fill-opacity="1" fill="white" text-rendering="geometricPrecision" image-rendering="optimizeQuality" font-family="sans-serif" stroke="white" stroke-opacity="1"
    ><rect x="0" width="163" height="14" y="0" clip-path="url(#clipPath55)" stroke="none"
      /><text fill="black" x="10" xml:space="preserve" y="11" clip-path="url(#clipPath55)" stroke="none"
      >4.1.1.1: email = getEmail()</text
    ></g
    ><g font-size="11px" transform="translate(1241,696)" fill-opacity="1" fill="white" text-rendering="geometricPrecision" image-rendering="optimizeQuality" font-family="sans-serif" stroke="white" stroke-opacity="1"
    ><rect x="0" width="208" height="14" y="0" clip-path="url(#clipPath56)" stroke="none"
      /><text fill="black" x="9" xml:space="preserve" y="11" clip-path="url(#clipPath56)" stroke="none"
      >4.1.1.6: pwd = generatePassword()</text
    ></g
    ><g font-size="11px" transform="translate(1238,733)" fill-opacity="1" fill="white" text-rendering="geometricPrecision" image-rendering="optimizeQuality" font-family="sans-serif" stroke="white" stroke-opacity="1"
    ><rect x="0" width="297" height="14" y="0" clip-path="url(#clipPath57)" stroke="none"
      /><text fill="black" x="9" xml:space="preserve" y="11" clip-path="url(#clipPath57)" stroke="none"
      >4.1.1.7: addUserWithRole(name, email, pwd, roleID)</text
    ></g
    ><g font-size="11px" transform="translate(964,476)" fill-opacity="1" fill="white" text-rendering="geometricPrecision" image-rendering="optimizeQuality" font-family="sans-serif" stroke="white" stroke-opacity="1"
    ><rect x="0" width="162" height="14" y="0" clip-path="url(#clipPath58)" stroke="none"
      /><text fill="black" x="9" xml:space="preserve" y="11" clip-path="url(#clipPath58)" stroke="none"
      >4.1.1: saveEmployeeData()</text
    ></g
    ><g font-size="11px" transform="translate(1233,577)" fill-opacity="1" fill="white" text-rendering="geometricPrecision" image-rendering="optimizeQuality" font-family="sans-serif" stroke="white" stroke-opacity="1"
    ><rect x="0" width="256" height="14" y="0" clip-path="url(#clipPath59)" stroke="none"
      /><text fill="black" x="11" xml:space="preserve" y="11" clip-path="url(#clipPath59)" stroke="none"
      >4.1.1.3: duplicatedUser = existsUser(email)</text
    ></g
    ><g font-size="11px" transform="translate(1236,615)" fill-opacity="1" fill="white" text-rendering="geometricPrecision" image-rendering="optimizeQuality" font-family="sans-serif" stroke="white" stroke-opacity="1"
    ><rect x="0" width="211" height="14" y="0" clip-path="url(#clipPath60)" stroke="none"
      /><text fill="black" x="9" xml:space="preserve" y="11" clip-path="url(#clipPath60)" stroke="none"
      >4.1.1.4: checkDuplicates(employee)</text
    ></g
    ><g font-size="11px" transform="translate(931,340)" fill-opacity="1" fill="white" text-rendering="geometricPrecision" image-rendering="optimizeQuality" font-family="sans-serif" stroke="white" stroke-opacity="1"
    ><rect x="0" width="222" height="14" y="0" clip-path="url(#clipPath61)" stroke="none"
      /><text fill="black" x="9" xml:space="preserve" y="11" clip-path="url(#clipPath61)" stroke="none"
      >3.1.1: employee = registerEmployee()</text
    ></g
    ><g font-size="11px" transform="translate(676,473)" fill-opacity="1" fill="white" text-rendering="geometricPrecision" image-rendering="optimizeQuality" font-family="sans-serif" stroke="white" stroke-opacity="1"
    ><rect x="0" width="127" height="14" y="0" clip-path="url(#clipPath62)" stroke="none"
      /><text fill="black" x="9" xml:space="preserve" y="11" clip-path="url(#clipPath62)" stroke="none"
      >4.1: saveEmployee()</text
    ></g
    ><g font-size="11px" transform="translate(671,334)" fill-opacity="1" fill="white" text-rendering="geometricPrecision" image-rendering="optimizeQuality" font-family="sans-serif" stroke="white" stroke-opacity="1"
    ><rect x="0" width="144" height="14" y="0" clip-path="url(#clipPath63)" stroke="none"
      /><text fill="black" x="10" xml:space="preserve" y="11" clip-path="url(#clipPath63)" stroke="none"
      >3.1: registerEmployee()</text
    ></g
    ><g font-size="11px" transform="translate(171,496)" fill-opacity="1" fill="white" text-rendering="geometricPrecision" image-rendering="optimizeQuality" font-family="sans-serif" stroke="white" stroke-opacity="1"
    ><rect x="0" width="281" height="14" y="0" clip-path="url(#clipPath64)" stroke="none"
      /><text fill="black" x="9" xml:space="preserve" y="11" clip-path="url(#clipPath64)" stroke="none"
      >4.2: confirms the registration of a new Employee</text
    ></g
    ><g font-size="11px" transform="translate(204,378)" fill-opacity="1" fill="white" text-rendering="geometricPrecision" image-rendering="optimizeQuality" font-family="sans-serif" stroke="white" stroke-opacity="1"
    ><rect x="0" width="215" height="14" y="0" clip-path="url(#clipPath65)" stroke="none"
      /><text fill="black" x="10" xml:space="preserve" y="11" clip-path="url(#clipPath65)" stroke="none"
      >3.2: requests inputted data approval</text
    ></g
    ><g font-size="11px" transform="translate(77,258)" fill-opacity="1" fill="white" text-rendering="geometricPrecision" image-rendering="optimizeQuality" font-family="sans-serif" stroke="white" stroke-opacity="1"
    ><rect x="0" width="496" height="14" y="0" clip-path="url(#clipPath66)" stroke="none"
      /><text fill="black" x="9" xml:space="preserve" y="11" clip-path="url(#clipPath66)" stroke="none"
      >2.1: requests Employee data (name, address, phone number, email, citizen card number)</text
    ></g
    ><g font-size="11px" transform="translate(179,110)" fill-opacity="1" fill="white" text-rendering="geometricPrecision" image-rendering="optimizeQuality" font-family="sans-serif" stroke="white" stroke-opacity="1"
    ><rect x="0" width="265" height="14" y="0" clip-path="url(#clipPath67)" stroke="none"
      /><text fill="black" x="10" xml:space="preserve" y="11" clip-path="url(#clipPath67)" stroke="none"
      >1.1: requests the type of Employee to register</text
    ></g
    ><g font-size="11px" transform="translate(234,455)" fill-opacity="1" fill="white" text-rendering="geometricPrecision" image-rendering="optimizeQuality" font-family="sans-serif" stroke="white" stroke-opacity="1"
    ><rect x="0" width="158" height="14" y="0" clip-path="url(#clipPath68)" stroke="none"
      /><text fill="black" x="10" xml:space="preserve" y="11" clip-path="url(#clipPath68)" stroke="none"
      >4: approves inputted data</text
    ></g
    ><g font-size="11px" transform="translate(237,334)" fill-opacity="1" fill="white" text-rendering="geometricPrecision" image-rendering="optimizeQuality" font-family="sans-serif" stroke="white" stroke-opacity="1"
    ><rect x="0" width="149" height="14" y="0" clip-path="url(#clipPath69)" stroke="none"
      /><text fill="black" x="10" xml:space="preserve" y="11" clip-path="url(#clipPath69)" stroke="none"
      >3: inputs Employee data</text
    ></g
    ><g font-size="11px" transform="translate(190,195)" fill-opacity="1" fill="white" text-rendering="geometricPrecision" image-rendering="optimizeQuality" font-family="sans-serif" stroke="white" stroke-opacity="1"
    ><rect x="0" width="243" height="14" y="0" clip-path="url(#clipPath70)" stroke="none"
      /><text fill="black" x="9" xml:space="preserve" y="11" clip-path="url(#clipPath70)" stroke="none"
      >2: inputs the type of Employee to register</text
    ></g
    ><g font-size="11px" transform="translate(204,74)" fill-opacity="1" fill="white" text-rendering="geometricPrecision" image-rendering="optimizeQuality" font-family="sans-serif" stroke="white" stroke-opacity="1"
    ><rect x="0" width="215" height="14" y="0" clip-path="url(#clipPath65)" stroke="none"
      /><text fill="black" x="9" xml:space="preserve" y="11" clip-path="url(#clipPath65)" stroke="none"
      >1: starts registering a new Employee</text
    ></g
    ><g font-size="8px" fill-opacity="1" fill="rgb(120,120,120)" text-rendering="geometricPrecision" image-rendering="optimizeQuality" stroke="rgb(120,120,120)" stroke-opacity="1"
    ><text x="0" xml:space="preserve" y="10" stroke="none"
      >Visual Paradigm Standard(Edgar(Instituto Superior de Engenharia do Porto))</text
    ></g
  ></g
></svg
>
