<?xml version="1.0" encoding="UTF-8"?>
<!DOCTYPE svg PUBLIC '-//W3C//DTD SVG 1.0//EN'
          'http://www.w3.org/TR/2001/REC-SVG-20010904/DTD/svg10.dtd'>
<svg fill-opacity="0" xmlns:xlink="http://www.w3.org/1999/xlink" color-rendering="auto" color-interpolation="auto" text-rendering="auto" stroke="rgb(0,0,0)" stroke-linecap="square" width="1401" stroke-miterlimit="10" shape-rendering="auto" stroke-opacity="0" fill="rgb(0,0,0)" stroke-dasharray="none" font-weight="normal" stroke-width="1" height="602" xmlns="http://www.w3.org/2000/svg" font-family="'Dialog'" font-style="normal" stroke-linejoin="miter" font-size="12px" stroke-dashoffset="0" image-rendering="auto"
><!--Generated by the Batik Graphics2D SVG Generator--><defs id="genericDefs"
  /><g
  ><defs id="defs1"
    ><clipPath clipPathUnits="userSpaceOnUse" id="clipPath1"
      ><path d="M-7 -7 L187 -7 L187 57 L-7 57 L-7 -7 Z"
      /></clipPath
      ><clipPath clipPathUnits="userSpaceOnUse" id="clipPath2"
      ><path d="M0 0 L0 32 L176 32 L176 0 Z"
      /></clipPath
      ><clipPath clipPathUnits="userSpaceOnUse" id="clipPath3"
      ><path d="M0 0 L0 14 L176 14 L176 0 Z"
      /></clipPath
      ><clipPath clipPathUnits="userSpaceOnUse" id="clipPath4"
      ><path d="M-7 -7 L187 -7 L187 75 L-7 75 L-7 -7 Z"
      /></clipPath
      ><clipPath clipPathUnits="userSpaceOnUse" id="clipPath5"
      ><path d="M0 0 L0 50 L176 50 L176 0 Z"
      /></clipPath
      ><clipPath clipPathUnits="userSpaceOnUse" id="clipPath6"
      ><path d="M-7 -7 L401 -7 L401 331 L-7 331 L-7 -7 Z"
      /></clipPath
      ><clipPath clipPathUnits="userSpaceOnUse" id="clipPath7"
      ><path d="M0 0 L0 306 L390 306 L390 0 Z"
      /></clipPath
      ><clipPath clipPathUnits="userSpaceOnUse" id="clipPath8"
      ><path d="M0 0 L0 14 L390 14 L390 0 Z"
      /></clipPath
      ><clipPath clipPathUnits="userSpaceOnUse" id="clipPath9"
      ><path d="M-7 -7 L378 -7 L378 72 L-7 72 L-7 -7 Z"
      /></clipPath
      ><clipPath clipPathUnits="userSpaceOnUse" id="clipPath10"
      ><path d="M0 0 L0 47 L367 47 L367 0 Z"
      /></clipPath
      ><clipPath clipPathUnits="userSpaceOnUse" id="clipPath11"
      ><path d="M0 0 L0 14 L367 14 L367 0 Z"
      /></clipPath
      ><clipPath clipPathUnits="userSpaceOnUse" id="clipPath12"
      ><path d="M-7 -7 L407 -7 L407 72 L-7 72 L-7 -7 Z"
      /></clipPath
      ><clipPath clipPathUnits="userSpaceOnUse" id="clipPath13"
      ><path d="M0 0 L0 47 L396 47 L396 0 Z"
      /></clipPath
      ><clipPath clipPathUnits="userSpaceOnUse" id="clipPath14"
      ><path d="M0 0 L0 14 L396 14 L396 0 Z"
      /></clipPath
      ><clipPath clipPathUnits="userSpaceOnUse" id="clipPath15"
      ><path d="M-7 -7 L441 -7 L441 72 L-7 72 L-7 -7 Z"
      /></clipPath
      ><clipPath clipPathUnits="userSpaceOnUse" id="clipPath16"
      ><path d="M0 0 L0 47 L430 47 L430 0 Z"
      /></clipPath
      ><clipPath clipPathUnits="userSpaceOnUse" id="clipPath17"
      ><path d="M0 0 L0 14 L430 14 L430 0 Z"
      /></clipPath
      ><clipPath clipPathUnits="userSpaceOnUse" id="clipPath18"
      ><path d="M-7 -7 L187 -7 L187 103 L-7 103 L-7 -7 Z"
      /></clipPath
      ><clipPath clipPathUnits="userSpaceOnUse" id="clipPath19"
      ><path d="M0 0 L0 78 L176 78 L176 0 Z"
      /></clipPath
      ><clipPath clipPathUnits="userSpaceOnUse" id="clipPath20"
      ><path d="M-7 -7 L152 -7 L152 77 L-7 77 L-7 -7 Z"
      /></clipPath
      ><clipPath clipPathUnits="userSpaceOnUse" id="clipPath21"
      ><path d="M0 0 L0 52 L141 52 L141 0 Z"
      /></clipPath
      ><clipPath clipPathUnits="userSpaceOnUse" id="clipPath22"
      ><path d="M0 0 L0 14 L141 14 L141 0 Z"
      /></clipPath
      ><clipPath clipPathUnits="userSpaceOnUse" id="clipPath23"
      ><path d="M-7 -7 L259 -7 L259 77 L-7 77 L-7 -7 Z"
      /></clipPath
      ><clipPath clipPathUnits="userSpaceOnUse" id="clipPath24"
      ><path d="M0 0 L0 52 L248 52 L248 0 Z"
      /></clipPath
      ><clipPath clipPathUnits="userSpaceOnUse" id="clipPath25"
      ><path d="M0 0 L0 14 L248 14 L248 0 Z"
      /></clipPath
      ><clipPath clipPathUnits="userSpaceOnUse" id="clipPath26"
      ><path d="M-7 -7 L37 -7 L37 25 L-7 25 L-7 -7 Z"
      /></clipPath
      ><clipPath clipPathUnits="userSpaceOnUse" id="clipPath27"
      ><path d="M0 0 L0 14 L26 14 L26 0 Z"
      /></clipPath
      ><clipPath clipPathUnits="userSpaceOnUse" id="clipPath28"
      ><path d="M-7 -7 L38 -7 L38 25 L-7 25 L-7 -7 Z"
      /></clipPath
      ><clipPath clipPathUnits="userSpaceOnUse" id="clipPath29"
      ><path d="M0 0 L0 14 L27 14 L27 0 Z"
      /></clipPath
      ><clipPath clipPathUnits="userSpaceOnUse" id="clipPath30"
      ><path d="M0 0 L104 0 L104 186 L0 186 L0 0 Z"
      /></clipPath
      ><clipPath clipPathUnits="userSpaceOnUse" id="clipPath31"
      ><path d="M0 0 L0 186 L104 186 L104 0 Z"
      /></clipPath
      ><clipPath clipPathUnits="userSpaceOnUse" id="clipPath32"
      ><path d="M0 0 L104 0 L104 242 L0 242 L0 0 Z"
      /></clipPath
      ><clipPath clipPathUnits="userSpaceOnUse" id="clipPath33"
      ><path d="M0 0 L0 242 L104 242 L104 0 Z"
      /></clipPath
      ><clipPath clipPathUnits="userSpaceOnUse" id="clipPath34"
      ><path d="M0 0 L416 0 L416 244 L0 244 L0 0 Z"
      /></clipPath
      ><clipPath clipPathUnits="userSpaceOnUse" id="clipPath35"
      ><path d="M0 0 L0 244 L416 244 L416 0 Z"
      /></clipPath
      ><clipPath clipPathUnits="userSpaceOnUse" id="clipPath36"
      ><path d="M0 0 L246 0 L246 104 L0 104 L0 0 Z"
      /></clipPath
      ><clipPath clipPathUnits="userSpaceOnUse" id="clipPath37"
      ><path d="M0 0 L0 104 L246 104 L246 0 Z"
      /></clipPath
      ><clipPath clipPathUnits="userSpaceOnUse" id="clipPath38"
      ><path d="M0 0 L260 0 L260 243 L0 243 L0 0 Z"
      /></clipPath
      ><clipPath clipPathUnits="userSpaceOnUse" id="clipPath39"
      ><path d="M0 0 L0 243 L260 243 L260 0 Z"
      /></clipPath
      ><clipPath clipPathUnits="userSpaceOnUse" id="clipPath40"
      ><path d="M154 35 L154 49 L88 49 L88 35 ZM0 0 L0 104 L246 104 L246 0 Z"
      /></clipPath
      ><clipPath clipPathUnits="userSpaceOnUse" id="clipPath41"
      ><path d="M0 0 L203 0 L203 183 L0 183 L0 0 Z"
      /></clipPath
      ><clipPath clipPathUnits="userSpaceOnUse" id="clipPath42"
      ><path d="M0 0 L0 183 L203 183 L203 0 Z"
      /></clipPath
      ><clipPath clipPathUnits="userSpaceOnUse" id="clipPath43"
      ><path d="M0 0 L203 0 L203 149 L0 149 L0 0 Z"
      /></clipPath
      ><clipPath clipPathUnits="userSpaceOnUse" id="clipPath44"
      ><path d="M0 0 L0 149 L203 149 L203 0 Z"
      /></clipPath
      ><clipPath clipPathUnits="userSpaceOnUse" id="clipPath45"
      ><path d="M-66 -14 L132 -14 L132 28 L-66 28 L-66 -14 Z"
      /></clipPath
    ></defs
    ><g fill="white" text-rendering="geometricPrecision" fill-opacity="1" stroke-opacity="1" stroke="white"
    ><rect x="0" width="1401" height="602" y="0" stroke="none"
    /></g
    ><g font-size="11px" transform="translate(874,2)" fill-opacity="1" fill="rgb(122,207,245)" text-rendering="geometricPrecision" image-rendering="optimizeQuality" font-family="sans-serif" stroke="rgb(122,207,245)" font-weight="bold" stroke-opacity="1"
    ><rect x="0" width="176" height="46" y="0" clip-path="url(#clipPath1)" stroke="none"
    /></g
    ><g fill-opacity="1" text-rendering="geometricPrecision" stroke="black" stroke-linecap="butt" transform="translate(874,2)" stroke-miterlimit="0" stroke-opacity="1" fill="black" font-weight="bold" font-family="sans-serif" stroke-linejoin="round" font-size="11px" image-rendering="optimizeQuality"
    ><rect fill="none" x="0" width="176" height="46" y="0" clip-path="url(#clipPath1)"
      /><line y2="14" fill="none" x1="0" clip-path="url(#clipPath1)" x2="176" y1="14"
    /></g
    ><g font-size="11px" transform="translate(874,2)" fill-opacity="1" fill="black" text-rendering="geometricPrecision" image-rendering="optimizeQuality" font-family="sans-serif" stroke="black" font-weight="bold" stroke-opacity="1"
    ><text x="63" xml:space="preserve" y="11" clip-path="url(#clipPath3)" stroke="none"
      >AdminUI</text
    ></g
    ><g font-size="11px" transform="translate(874,132)" fill-opacity="1" fill="rgb(122,207,245)" text-rendering="geometricPrecision" image-rendering="optimizeQuality" font-family="sans-serif" stroke="rgb(122,207,245)" font-weight="bold" stroke-opacity="1"
    ><rect x="0" width="176" height="64" y="0" clip-path="url(#clipPath4)" stroke="none"
    /></g
    ><g fill-opacity="1" text-rendering="geometricPrecision" stroke="black" stroke-linecap="butt" transform="translate(874,132)" stroke-miterlimit="0" stroke-opacity="1" fill="black" font-weight="bold" font-family="sans-serif" stroke-linejoin="round" font-size="11px" image-rendering="optimizeQuality"
    ><rect fill="none" x="0" width="176" height="64" y="0" clip-path="url(#clipPath4)"
      /><line y2="14" fill="none" x1="0" clip-path="url(#clipPath4)" x2="176" y1="14"
    /></g
    ><g font-size="11px" transform="matrix(1,0,0,1,874,146)" fill-opacity="1" fill="black" text-rendering="geometricPrecision" image-rendering="optimizeQuality" font-family="sans-serif" stroke="black" stroke-opacity="1"
    ><text x="2" xml:space="preserve" y="13" clip-path="url(#clipPath5)" stroke="none"
      >+registerEmployee()</text
    ></g
    ><g font-size="11px" transform="matrix(1,0,0,1,874,146)" fill-opacity="1" fill="black" text-rendering="geometricPrecision" image-rendering="optimizeQuality" font-family="sans-serif" stroke="black" stroke-opacity="1"
    ><text x="2" xml:space="preserve" y="27" clip-path="url(#clipPath5)" stroke="none"
      >+saveEmployee()</text
    ></g
    ><g font-size="11px" transform="translate(874,132)" fill-opacity="1" fill="black" text-rendering="geometricPrecision" image-rendering="optimizeQuality" font-family="sans-serif" stroke="black" font-weight="bold" stroke-opacity="1"
    ><text x="40" xml:space="preserve" y="11" clip-path="url(#clipPath3)" stroke="none"
      >AdminController</text
    ></g
    ><g font-size="11px" transform="translate(340,77)" fill-opacity="1" fill="rgb(122,207,245)" text-rendering="geometricPrecision" image-rendering="optimizeQuality" font-family="sans-serif" stroke="rgb(122,207,245)" font-weight="bold" stroke-opacity="1"
    ><rect x="0" width="390" height="320" y="0" clip-path="url(#clipPath6)" stroke="none"
    /></g
    ><g fill-opacity="1" text-rendering="geometricPrecision" stroke="black" stroke-linecap="butt" transform="translate(340,77)" stroke-miterlimit="0" stroke-opacity="1" fill="black" font-weight="bold" font-family="sans-serif" stroke-linejoin="round" font-size="11px" image-rendering="optimizeQuality"
    ><rect fill="none" x="0" width="390" height="320" y="0" clip-path="url(#clipPath6)"
      /><line y2="14" fill="none" x1="0" clip-path="url(#clipPath6)" x2="390" y1="14"
    /></g
    ><g font-size="11px" transform="matrix(1,0,0,1,340,91)" fill-opacity="1" fill="black" text-rendering="geometricPrecision" image-rendering="optimizeQuality" font-family="sans-serif" stroke="black" stroke-opacity="1"
    ><text x="2" xml:space="preserve" y="13" clip-path="url(#clipPath7)" stroke="none"
      >-int id</text
    ></g
    ><g font-size="11px" transform="matrix(1,0,0,1,340,91)" fill-opacity="1" fill="black" text-rendering="geometricPrecision" image-rendering="optimizeQuality" font-family="sans-serif" stroke="black" stroke-opacity="1"
    ><text x="2" xml:space="preserve" y="27" clip-path="url(#clipPath7)" stroke="none"
      >-static int teamIDCounter</text
    ></g
    ><g font-size="11px" transform="matrix(1,0,0,1,340,91)" fill-opacity="1" fill="black" text-rendering="geometricPrecision" image-rendering="optimizeQuality" font-family="sans-serif" stroke="black" stroke-opacity="1"
    ><text x="2" xml:space="preserve" y="41" clip-path="url(#clipPath7)" stroke="none"
      >-String name</text
    ></g
    ><g font-size="11px" transform="matrix(1,0,0,1,340,91)" fill-opacity="1" fill="black" text-rendering="geometricPrecision" image-rendering="optimizeQuality" font-family="sans-serif" stroke="black" stroke-opacity="1"
    ><text x="2" xml:space="preserve" y="55" clip-path="url(#clipPath7)" stroke="none"
      >-String address</text
    ></g
    ><g font-size="11px" transform="matrix(1,0,0,1,340,91)" fill-opacity="1" fill="black" text-rendering="geometricPrecision" image-rendering="optimizeQuality" font-family="sans-serif" stroke="black" stroke-opacity="1"
    ><text x="2" xml:space="preserve" y="69" clip-path="url(#clipPath7)" stroke="none"
      >-String phoneNumber</text
    ></g
    ><g font-size="11px" transform="matrix(1,0,0,1,340,91)" fill-opacity="1" fill="black" text-rendering="geometricPrecision" image-rendering="optimizeQuality" font-family="sans-serif" stroke="black" stroke-opacity="1"
    ><text x="2" xml:space="preserve" y="83" clip-path="url(#clipPath7)" stroke="none"
      >-String email</text
    ></g
    ><g font-size="11px" transform="matrix(1,0,0,1,340,91)" fill-opacity="1" fill="black" text-rendering="geometricPrecision" image-rendering="optimizeQuality" font-family="sans-serif" stroke="black" stroke-opacity="1"
    ><text x="2" xml:space="preserve" y="97" clip-path="url(#clipPath7)" stroke="none"
      >-String citizenCardNumber</text
    ></g
    ><g font-size="11px" transform="matrix(1,0,0,1,340,91)" fill-opacity="1" fill="black" text-rendering="geometricPrecision" image-rendering="optimizeQuality" font-family="sans-serif" stroke="black" stroke-opacity="1"
    ><text x="2" xml:space="preserve" y="111" clip-path="url(#clipPath7)" stroke="none"
      >-String roleID</text
      ><line stroke-linecap="butt" clip-path="url(#clipPath7)" fill="none" x1="0" x2="390" y1="116" y2="116" stroke-linejoin="bevel" stroke-miterlimit="0"
    /></g
    ><g font-size="11px" transform="matrix(1,0,0,1,340,91)" fill-opacity="1" fill="black" text-rendering="geometricPrecision" image-rendering="optimizeQuality" font-family="sans-serif" stroke="black" stroke-opacity="1"
    ><text x="2" xml:space="preserve" y="129" clip-path="url(#clipPath7)" stroke="none"
      >+Employee(name, address, phoneNumber, email, citizenCardNumber)</text
    ></g
    ><g font-size="11px" transform="matrix(1,0,0,1,340,91)" fill-opacity="1" fill="black" text-rendering="geometricPrecision" image-rendering="optimizeQuality" font-family="sans-serif" stroke="black" stroke-opacity="1"
    ><text x="2" xml:space="preserve" y="143" clip-path="url(#clipPath7)" stroke="none"
      >+getID()</text
    ></g
    ><g font-size="11px" transform="matrix(1,0,0,1,340,91)" fill-opacity="1" fill="black" text-rendering="geometricPrecision" image-rendering="optimizeQuality" font-family="sans-serif" stroke="black" stroke-opacity="1"
    ><text x="2" xml:space="preserve" y="157" clip-path="url(#clipPath7)" stroke="none"
      >+getName()</text
    ></g
    ><g font-size="11px" transform="matrix(1,0,0,1,340,91)" fill-opacity="1" fill="black" text-rendering="geometricPrecision" image-rendering="optimizeQuality" font-family="sans-serif" stroke="black" stroke-opacity="1"
    ><text x="2" xml:space="preserve" y="171" clip-path="url(#clipPath7)" stroke="none"
      >+setName(name) : void</text
    ></g
    ><g font-size="11px" transform="matrix(1,0,0,1,340,91)" fill-opacity="1" fill="black" text-rendering="geometricPrecision" image-rendering="optimizeQuality" font-family="sans-serif" stroke="black" stroke-opacity="1"
    ><text x="2" xml:space="preserve" y="185" clip-path="url(#clipPath7)" stroke="none"
      >+getAddress()</text
    ></g
    ><g font-size="11px" transform="matrix(1,0,0,1,340,91)" fill-opacity="1" fill="black" text-rendering="geometricPrecision" image-rendering="optimizeQuality" font-family="sans-serif" stroke="black" stroke-opacity="1"
    ><text x="2" xml:space="preserve" y="199" clip-path="url(#clipPath7)" stroke="none"
      >+setAddress(address) : void</text
    ></g
    ><g font-size="11px" transform="matrix(1,0,0,1,340,91)" fill-opacity="1" fill="black" text-rendering="geometricPrecision" image-rendering="optimizeQuality" font-family="sans-serif" stroke="black" stroke-opacity="1"
    ><text x="2" xml:space="preserve" y="213" clip-path="url(#clipPath7)" stroke="none"
      >+getPhoneNumber()</text
    ></g
    ><g font-size="11px" transform="matrix(1,0,0,1,340,91)" fill-opacity="1" fill="black" text-rendering="geometricPrecision" image-rendering="optimizeQuality" font-family="sans-serif" stroke="black" stroke-opacity="1"
    ><text x="2" xml:space="preserve" y="227" clip-path="url(#clipPath7)" stroke="none"
      >+setPhoneNumber(phoneNumber) : void</text
    ></g
    ><g font-size="11px" transform="matrix(1,0,0,1,340,91)" fill-opacity="1" fill="black" text-rendering="geometricPrecision" image-rendering="optimizeQuality" font-family="sans-serif" stroke="black" stroke-opacity="1"
    ><text x="2" xml:space="preserve" y="241" clip-path="url(#clipPath7)" stroke="none"
      >+getEmail()</text
    ></g
    ><g font-size="11px" transform="matrix(1,0,0,1,340,91)" fill-opacity="1" fill="black" text-rendering="geometricPrecision" image-rendering="optimizeQuality" font-family="sans-serif" stroke="black" stroke-opacity="1"
    ><text x="2" xml:space="preserve" y="255" clip-path="url(#clipPath7)" stroke="none"
      >+setEmail(email) : void</text
    ></g
    ><g font-size="11px" transform="matrix(1,0,0,1,340,91)" fill-opacity="1" fill="black" text-rendering="geometricPrecision" image-rendering="optimizeQuality" font-family="sans-serif" stroke="black" stroke-opacity="1"
    ><text x="2" xml:space="preserve" y="269" clip-path="url(#clipPath7)" stroke="none"
      >+getCitizenCardNumber()</text
    ></g
    ><g font-size="11px" transform="matrix(1,0,0,1,340,91)" fill-opacity="1" fill="black" text-rendering="geometricPrecision" image-rendering="optimizeQuality" font-family="sans-serif" stroke="black" stroke-opacity="1"
    ><text x="2" xml:space="preserve" y="283" clip-path="url(#clipPath7)" stroke="none"
      >+setCitizenCardNumber(citizenCardNumber) : void</text
    ></g
    ><g font-size="11px" transform="matrix(1,0,0,1,340,91)" fill-opacity="1" fill="black" text-rendering="geometricPrecision" image-rendering="optimizeQuality" font-family="sans-serif" stroke="black" stroke-opacity="1"
    ><text x="2" xml:space="preserve" y="297" clip-path="url(#clipPath7)" stroke="none"
      >+getRoleID()</text
    ></g
    ><g font-size="11px" transform="translate(340,77)" fill-opacity="1" fill="black" text-rendering="geometricPrecision" image-rendering="optimizeQuality" font-family="sans-serif" stroke="black" font-weight="bold" stroke-opacity="1"
    ><text x="167" xml:space="preserve" y="11" clip-path="url(#clipPath8)" stroke="none"
      >Employee</text
    ></g
    ><g font-size="11px" transform="translate(0,537)" fill-opacity="1" fill="rgb(122,207,245)" text-rendering="geometricPrecision" image-rendering="optimizeQuality" font-family="sans-serif" stroke="rgb(122,207,245)" font-weight="bold" stroke-opacity="1"
    ><rect x="0" width="367" height="61" y="0" clip-path="url(#clipPath9)" stroke="none"
    /></g
    ><g fill-opacity="1" text-rendering="geometricPrecision" stroke="black" stroke-linecap="butt" transform="translate(0,537)" stroke-miterlimit="0" stroke-opacity="1" fill="black" font-weight="bold" font-family="sans-serif" stroke-linejoin="round" font-size="11px" image-rendering="optimizeQuality"
    ><rect fill="none" x="0" width="367" height="61" y="0" clip-path="url(#clipPath9)"
      /><line y2="14" fill="none" x1="0" clip-path="url(#clipPath9)" x2="367" y1="14"
    /></g
    ><g font-size="11px" transform="matrix(1,0,0,1,0,551)" fill-opacity="1" fill="black" text-rendering="geometricPrecision" image-rendering="optimizeQuality" font-family="sans-serif" stroke="black" stroke-opacity="1"
    ><text x="2" xml:space="preserve" y="13" clip-path="url(#clipPath10)" stroke="none"
      >+Nurse(name, address, phoneNumber, email, citizenCardNumber)</text
    ></g
    ><g font-size="11px" transform="translate(0,537)" fill-opacity="1" fill="black" text-rendering="geometricPrecision" image-rendering="optimizeQuality" font-family="sans-serif" stroke="black" font-weight="bold" stroke-opacity="1"
    ><text x="166" xml:space="preserve" y="11" clip-path="url(#clipPath11)" stroke="none"
      >Nurse</text
    ></g
    ><g font-size="11px" transform="translate(403,537)" fill-opacity="1" fill="rgb(122,207,245)" text-rendering="geometricPrecision" image-rendering="optimizeQuality" font-family="sans-serif" stroke="rgb(122,207,245)" font-weight="bold" stroke-opacity="1"
    ><rect x="0" width="396" height="61" y="0" clip-path="url(#clipPath12)" stroke="none"
    /></g
    ><g fill-opacity="1" text-rendering="geometricPrecision" stroke="black" stroke-linecap="butt" transform="translate(403,537)" stroke-miterlimit="0" stroke-opacity="1" fill="black" font-weight="bold" font-family="sans-serif" stroke-linejoin="round" font-size="11px" image-rendering="optimizeQuality"
    ><rect fill="none" x="0" width="396" height="61" y="0" clip-path="url(#clipPath12)"
      /><line y2="14" fill="none" x1="0" clip-path="url(#clipPath12)" x2="396" y1="14"
    /></g
    ><g font-size="11px" transform="matrix(1,0,0,1,403,551)" fill-opacity="1" fill="black" text-rendering="geometricPrecision" image-rendering="optimizeQuality" font-family="sans-serif" stroke="black" stroke-opacity="1"
    ><text x="2" xml:space="preserve" y="13" clip-path="url(#clipPath13)" stroke="none"
      >+Receptionist(name, address, phoneNumber, email, citizenCardNumber)</text
    ></g
    ><g font-size="11px" transform="translate(403,537)" fill-opacity="1" fill="black" text-rendering="geometricPrecision" image-rendering="optimizeQuality" font-family="sans-serif" stroke="black" font-weight="bold" stroke-opacity="1"
    ><text x="162" xml:space="preserve" y="11" clip-path="url(#clipPath14)" stroke="none"
      >Receptionist</text
    ></g
    ><g font-size="11px" transform="translate(835,537)" fill-opacity="1" fill="rgb(122,207,245)" text-rendering="geometricPrecision" image-rendering="optimizeQuality" font-family="sans-serif" stroke="rgb(122,207,245)" font-weight="bold" stroke-opacity="1"
    ><rect x="0" width="430" height="61" y="0" clip-path="url(#clipPath15)" stroke="none"
    /></g
    ><g fill-opacity="1" text-rendering="geometricPrecision" stroke="black" stroke-linecap="butt" transform="translate(835,537)" stroke-miterlimit="0" stroke-opacity="1" fill="black" font-weight="bold" font-family="sans-serif" stroke-linejoin="round" font-size="11px" image-rendering="optimizeQuality"
    ><rect fill="none" x="0" width="430" height="61" y="0" clip-path="url(#clipPath15)"
      /><line y2="14" fill="none" x1="0" clip-path="url(#clipPath15)" x2="430" y1="14"
    /></g
    ><g font-size="11px" transform="matrix(1,0,0,1,835,551)" fill-opacity="1" fill="black" text-rendering="geometricPrecision" image-rendering="optimizeQuality" font-family="sans-serif" stroke="black" stroke-opacity="1"
    ><text x="2" xml:space="preserve" y="13" clip-path="url(#clipPath16)" stroke="none"
      >+CenterCoordinator(name, address, phoneNumber, email, citizenCardNumber)</text
    ></g
    ><g font-size="11px" transform="translate(835,537)" fill-opacity="1" fill="black" text-rendering="geometricPrecision" image-rendering="optimizeQuality" font-family="sans-serif" stroke="black" font-weight="bold" stroke-opacity="1"
    ><text x="161" xml:space="preserve" y="11" clip-path="url(#clipPath17)" stroke="none"
      >CenterCoordinator</text
    ></g
    ><g font-size="11px" transform="translate(874,280)" fill-opacity="1" fill="rgb(122,207,245)" text-rendering="geometricPrecision" image-rendering="optimizeQuality" font-family="sans-serif" stroke="rgb(122,207,245)" font-weight="bold" stroke-opacity="1"
    ><rect x="0" width="176" height="92" y="0" clip-path="url(#clipPath18)" stroke="none"
    /></g
    ><g fill-opacity="1" text-rendering="geometricPrecision" stroke="black" stroke-linecap="butt" transform="translate(874,280)" stroke-miterlimit="0" stroke-opacity="1" fill="black" font-weight="bold" font-family="sans-serif" stroke-linejoin="round" font-size="11px" image-rendering="optimizeQuality"
    ><rect fill="none" x="0" width="176" height="92" y="0" clip-path="url(#clipPath18)"
      /><line y2="14" fill="none" x1="0" clip-path="url(#clipPath18)" x2="176" y1="14"
    /></g
    ><g font-size="11px" transform="matrix(1,0,0,1,874,294)" fill-opacity="1" fill="black" text-rendering="geometricPrecision" image-rendering="optimizeQuality" font-family="sans-serif" stroke="black" stroke-opacity="1"
    ><text x="2" xml:space="preserve" y="13" clip-path="url(#clipPath19)" stroke="none"
      >+validateEmployeeData()</text
    ></g
    ><g font-size="11px" transform="matrix(1,0,0,1,874,294)" fill-opacity="1" fill="black" text-rendering="geometricPrecision" image-rendering="optimizeQuality" font-family="sans-serif" stroke="black" stroke-opacity="1"
    ><text x="2" xml:space="preserve" y="27" clip-path="url(#clipPath19)" stroke="none"
      >+saveEmployeeData()</text
    ></g
    ><g font-size="11px" transform="matrix(1,0,0,1,874,294)" fill-opacity="1" fill="black" text-rendering="geometricPrecision" image-rendering="optimizeQuality" font-family="sans-serif" stroke="black" stroke-opacity="1"
    ><text x="2" xml:space="preserve" y="41" clip-path="url(#clipPath19)" stroke="none"
      >+generatePassword()</text
    ></g
    ><g font-size="11px" transform="matrix(1,0,0,1,874,294)" fill-opacity="1" fill="black" text-rendering="geometricPrecision" image-rendering="optimizeQuality" font-family="sans-serif" stroke="black" stroke-opacity="1"
    ><text x="2" xml:space="preserve" y="55" clip-path="url(#clipPath19)" stroke="none"
      >+registerEmployee()</text
    ></g
    ><g font-size="11px" transform="matrix(1,0,0,1,874,294)" fill-opacity="1" fill="black" text-rendering="geometricPrecision" image-rendering="optimizeQuality" font-family="sans-serif" stroke="black" stroke-opacity="1"
    ><text x="2" xml:space="preserve" y="69" clip-path="url(#clipPath19)" stroke="none"
      >+addEmployee()</text
    ></g
    ><g font-size="11px" transform="translate(874,280)" fill-opacity="1" fill="black" text-rendering="geometricPrecision" image-rendering="optimizeQuality" font-family="sans-serif" stroke="black" font-weight="bold" stroke-opacity="1"
    ><text x="46" xml:space="preserve" y="11" clip-path="url(#clipPath3)" stroke="none"
      >EmployeeStore</text
    ></g
    ><g font-size="11px" transform="translate(1149,214)" fill-opacity="1" fill="rgb(122,207,245)" text-rendering="geometricPrecision" image-rendering="optimizeQuality" font-family="sans-serif" stroke="rgb(122,207,245)" font-weight="bold" stroke-opacity="1"
    ><rect x="0" width="141" height="66" y="0" clip-path="url(#clipPath20)" stroke="none"
    /></g
    ><g fill-opacity="1" text-rendering="geometricPrecision" stroke="black" stroke-linecap="butt" transform="translate(1149,214)" stroke-miterlimit="0" stroke-opacity="1" fill="black" font-weight="bold" font-family="sans-serif" stroke-linejoin="round" font-size="11px" image-rendering="optimizeQuality"
    ><rect fill="none" x="0" width="141" height="66" y="0" clip-path="url(#clipPath20)"
      /><line y2="14" fill="none" x1="0" clip-path="url(#clipPath20)" x2="141" y1="14"
    /></g
    ><g font-size="11px" transform="matrix(1,0,0,1,1149,228)" fill-opacity="1" fill="black" text-rendering="geometricPrecision" image-rendering="optimizeQuality" font-family="sans-serif" stroke="black" stroke-opacity="1"
    ><text x="2" xml:space="preserve" y="13" clip-path="url(#clipPath21)" stroke="none"
      >+generatePassword()</text
    ></g
    ><g font-size="11px" transform="translate(1149,214)" fill-opacity="1" fill="black" text-rendering="geometricPrecision" image-rendering="optimizeQuality" font-family="sans-serif" stroke="black" font-weight="bold" stroke-opacity="1"
    ><text x="15" xml:space="preserve" y="11" clip-path="url(#clipPath22)" stroke="none"
      >PasswordGenerator</text
    ></g
    ><g font-size="11px" transform="translate(1149,336)" fill-opacity="1" fill="rgb(122,207,245)" text-rendering="geometricPrecision" image-rendering="optimizeQuality" font-family="sans-serif" stroke="rgb(122,207,245)" font-weight="bold" stroke-opacity="1"
    ><rect x="0" width="248" height="66" y="0" clip-path="url(#clipPath23)" stroke="none"
    /></g
    ><g fill-opacity="1" text-rendering="geometricPrecision" stroke="black" stroke-linecap="butt" transform="translate(1149,336)" stroke-miterlimit="0" stroke-opacity="1" fill="black" font-weight="bold" font-family="sans-serif" stroke-linejoin="round" font-size="11px" image-rendering="optimizeQuality"
    ><rect fill="none" x="0" width="248" height="66" y="0" clip-path="url(#clipPath23)"
      /><line y2="14" fill="none" x1="0" clip-path="url(#clipPath23)" x2="248" y1="14"
    /></g
    ><g font-size="11px" transform="matrix(1,0,0,1,1149,350)" fill-opacity="1" fill="black" text-rendering="geometricPrecision" image-rendering="optimizeQuality" font-family="sans-serif" stroke="black" stroke-opacity="1"
    ><text x="2" xml:space="preserve" y="13" clip-path="url(#clipPath24)" stroke="none"
      >+existsUser(email)</text
    ></g
    ><g font-size="11px" transform="matrix(1,0,0,1,1149,350)" fill-opacity="1" fill="black" text-rendering="geometricPrecision" image-rendering="optimizeQuality" font-family="sans-serif" stroke="black" stroke-opacity="1"
    ><text x="2" xml:space="preserve" y="27" clip-path="url(#clipPath24)" stroke="none"
      >+addUserWithRole(name, email, pwd, roleID)</text
    ></g
    ><g font-size="11px" transform="translate(1149,336)" fill-opacity="1" fill="black" text-rendering="geometricPrecision" image-rendering="optimizeQuality" font-family="sans-serif" stroke="black" font-weight="bold" stroke-opacity="1"
    ><text x="91" xml:space="preserve" y="11" clip-path="url(#clipPath25)" stroke="none"
      >AuthFacade</text
    ></g
    ><g font-size="11px" transform="translate(735,303)" fill-opacity="1" fill="black" text-rendering="geometricPrecision" image-rendering="optimizeQuality" font-family="sans-serif" stroke="black" stroke-opacity="1"
    ><text x="10" xml:space="preserve" y="11" clip-path="url(#clipPath27)" stroke="none"
      >*</text
    ></g
    ><g font-size="11px" transform="translate(843,320)" fill-opacity="1" fill="black" text-rendering="geometricPrecision" image-rendering="optimizeQuality" font-family="sans-serif" stroke="black" stroke-opacity="1"
    ><text x="10" xml:space="preserve" y="11" clip-path="url(#clipPath29)" stroke="none"
      >1</text
    ></g
    ><g fill-opacity="1" text-rendering="geometricPrecision" stroke="black" stroke-linecap="butt" transform="translate(912,-1)" stroke-opacity="1" fill="black" stroke-dasharray="5" font-family="sans-serif" stroke-linejoin="round" font-size="11px" stroke-dashoffset="1" image-rendering="optimizeQuality"
    ><line y2="132" fill="none" x1="50" clip-path="url(#clipPath31)" x2="50" y1="50"
      /><line clip-path="url(#clipPath31)" stroke-dashoffset="0" fill="none" x1="50" x2="56" y1="132" y2="120" stroke-dasharray="none"
      /><line clip-path="url(#clipPath31)" stroke-dashoffset="0" fill="none" x1="50" x2="44" y1="132" y2="120" stroke-dasharray="none"
    /></g
    ><g stroke-linecap="butt" font-size="11px" transform="translate(485,348)" fill-opacity="1" fill="black" text-rendering="geometricPrecision" image-rendering="optimizeQuality" font-family="sans-serif" stroke-linejoin="round" stroke="black" stroke-opacity="1"
    ><line y2="188" fill="none" x1="50" clip-path="url(#clipPath33)" x2="50" y1="50"
      /><polygon fill="white" clip-path="url(#clipPath33)" points=" 50 50 44 62 56 62" stroke="none"
      /><polygon fill="none" points=" 50 50 44 62 56 62" clip-path="url(#clipPath33)"
    /></g
    ><g stroke-linecap="butt" font-size="11px" transform="translate(681,347)" fill-opacity="1" fill="black" text-rendering="geometricPrecision" image-rendering="optimizeQuality" font-family="sans-serif" stroke-linejoin="round" stroke="black" stroke-opacity="1"
    ><line y2="190" fill="none" x1="50" clip-path="url(#clipPath35)" x2="362" y1="50"
      /><polygon fill="white" clip-path="url(#clipPath35)" points=" 50 50 57 59 62 48" stroke="none"
      /><polygon fill="none" points=" 50 50 57 59 62 48" clip-path="url(#clipPath35)"
    /></g
    ><g fill-opacity="1" text-rendering="geometricPrecision" stroke="black" stroke-linecap="butt" transform="translate(681,132)" stroke-opacity="1" fill="black" stroke-dasharray="5" font-family="sans-serif" stroke-linejoin="round" font-size="11px" stroke-dashoffset="1" image-rendering="optimizeQuality"
    ><line y2="50" fill="none" x1="192" clip-path="url(#clipPath37)" x2="50" y1="50"
      /><line clip-path="url(#clipPath37)" stroke-dashoffset="0" fill="none" x1="50" x2="62" y1="50" y2="56" stroke-dasharray="none"
      /><line clip-path="url(#clipPath37)" stroke-dashoffset="0" fill="none" x1="50" x2="62" y1="50" y2="44" stroke-dasharray="none"
    /></g
    ><g stroke-linecap="butt" font-size="11px" transform="translate(133,348)" fill-opacity="1" fill="black" text-rendering="geometricPrecision" image-rendering="optimizeQuality" font-family="sans-serif" stroke-linejoin="round" stroke="black" stroke-opacity="1"
    ><line y2="189" fill="none" x1="206" clip-path="url(#clipPath39)" x2="50" y1="50"
      /><polygon fill="white" clip-path="url(#clipPath39)" points=" 206 50 193 52 200 62" stroke="none"
      /><polygon fill="none" points=" 206 50 193 52 200 62" clip-path="url(#clipPath39)"
    /></g
    ><g fill-opacity="1" text-rendering="geometricPrecision" stroke="black" stroke-linecap="butt" transform="translate(912,147)" stroke-opacity="1" fill="black" stroke-dasharray="5" font-family="sans-serif" stroke-linejoin="round" font-size="11px" stroke-dashoffset="1" image-rendering="optimizeQuality"
    ><line y2="132" fill="none" x1="50" clip-path="url(#clipPath31)" x2="50" y1="50"
      /><line clip-path="url(#clipPath31)" stroke-dashoffset="0" fill="none" x1="50" x2="56" y1="132" y2="120" stroke-dasharray="none"
      /><line clip-path="url(#clipPath31)" stroke-dashoffset="0" fill="none" x1="50" x2="44" y1="132" y2="120" stroke-dasharray="none"
    /></g
    ><g stroke-linecap="butt" font-size="11px" transform="translate(681,269)" fill-opacity="1" fill="black" text-rendering="geometricPrecision" image-rendering="optimizeQuality" font-family="sans-serif" stroke-linejoin="round" stroke="black" stroke-opacity="1"
    ><line y2="50" fill="none" x1="50" clip-path="url(#clipPath40)" x2="192" y1="50"
    /></g
    ><g fill-opacity="1" text-rendering="geometricPrecision" stroke="black" stroke-linecap="butt" transform="translate(1000,197)" stroke-opacity="1" fill="black" stroke-dasharray="5" font-family="sans-serif" stroke-linejoin="round" font-size="11px" stroke-dashoffset="1" image-rendering="optimizeQuality"
    ><line y2="50" fill="none" x1="50" clip-path="url(#clipPath42)" x2="149" y1="129"
      /><line clip-path="url(#clipPath42)" stroke-dashoffset="0" fill="none" x1="149" x2="136" y1="50" y2="52" stroke-dasharray="none"
      /><line clip-path="url(#clipPath42)" stroke-dashoffset="0" fill="none" x1="149" x2="143" y1="50" y2="62" stroke-dasharray="none"
    /></g
    ><g fill-opacity="1" text-rendering="geometricPrecision" stroke="black" stroke-linecap="butt" transform="translate(1000,276)" stroke-opacity="1" fill="black" stroke-dasharray="5" font-family="sans-serif" stroke-linejoin="round" font-size="11px" stroke-dashoffset="1" image-rendering="optimizeQuality"
    ><line y2="95" fill="none" x1="50" clip-path="url(#clipPath44)" x2="129" y1="50"
      /><line y2="95" fill="none" x1="129" clip-path="url(#clipPath44)" x2="149" y1="95"
      /><line clip-path="url(#clipPath44)" stroke-dashoffset="0" fill="none" x1="149" x2="137" y1="95" y2="89" stroke-dasharray="none"
      /><line clip-path="url(#clipPath44)" stroke-dashoffset="0" fill="none" x1="149" x2="137" y1="95" y2="101" stroke-dasharray="none"
    /></g
    ><g font-size="11px" transform="translate(769,304)" fill-opacity="1" fill="black" text-rendering="geometricPrecision" image-rendering="optimizeQuality" font-family="sans-serif" stroke="black" stroke-opacity="1"
    ><text x="9" xml:space="preserve" y="11" clip-path="url(#clipPath45)" stroke="none"
      >contains</text
    ></g
    ><g font-size="8px" fill-opacity="1" fill="rgb(120,120,120)" text-rendering="geometricPrecision" image-rendering="optimizeQuality" stroke="rgb(120,120,120)" stroke-opacity="1"
    ><text x="0" xml:space="preserve" y="10" stroke="none"
      >Visual Paradigm Standard(Edgar(Instituto Superior de Engenharia do Porto))</text
    ></g
  ></g
></svg
>
