@startuml
hide methods
left to right direction
skinparam classAttributeIconSize 0


class Company {
  -designation
}

class CenterCoordinator{

}

class VaccinationStatistics{

}


Company "1" -- "*" CenterCoordinator : employees >
CenterCoordinator "*" -- "*" VaccinationStatistics : analizes >









@enduml