@startuml
skinparam classAttributeIconSize 0

class VaccinationStatisticsController {
  +initialize()
  +showStatistics()
  +exportStatistics(statistics)
}

class VaccinationStatisticsUI {
}

class VaccinationStatisticsStore{
  +arrayList<String>statistics = getNumberOfVaccinated()
}

class Company{
  +showStatisticsStore = getVaccinationStatisticsStore()
}

VaccinationStatisticsUI ..> VaccinationStatisticsController
VaccinationStatisticsController ..> Company
VaccinationStatisticsController ..> VaccinationStatisticsStore
Company "1" --  "1" VaccinationStatisticsStore : uses >




@enduml