@startuml
'https://plantuml.com/sequence-diagram

autonumber
actor cc as "CenterCoordinator"
participant cUI as "CenterCoordinatorUI"
participant lUI as ":LoadCSVFileUI"
participant vaCtrl as ":{VaccineAdministration}Controller"
participant vaStore as ":{VaccineAdministration}Store"
participant company as ":Company"
participant ssUI as "SelectionSortUI"
participant bsUI as "BubbleSortUI"

activate cc
opt selection of cc function
cc -> cUI: import CSV file
end of opt
activate cUI
cUI->lUI
deactivate cUI
activate lUI

opt file path request
cc ->  lUI: chooses file
lUI-> vaCtrl: file = new File()
activate vaCtrl
vaCtrl -> company : store=getVaccineAdministrationStore()
activate company
deactivate company
vaCtrl <- lUI : arrayList<VaccineAdministration> vaList =getVAlistByFile(file)
vaCtrl -> vaStore: getVAlistByFile(file)
deactivate vaCtrl
activate vaStore
vaStore->vaStore: addVaccineAdministration()
activate vaStore
vaStore-> vaStore: checksDuplicate()
activate vaStore
deactivate vaStore
deactivate vaStore
lUI-> vaCtrl: vaList = getVAlist()
activate vaCtrl
vaCtrl-> vaStore: getVAlist()
deactivate
deactivate
deactivate
end of opt
alt selection sort
  cc -> lUI: selection sort
  activate lUI

  lUI-> ssUI: by arrival/leaving time

 deactivate lUI
  activate ssUI
  ssUI-> vaCtrl:this.vaList= vaList
    activate vaCtrl
  ssUI-> vaCtrl: selectionSort(vaList)
  vaCtrl->vaStore: selectionSort(vaList)
  deactivate

  activate vaStore
  deactivate


ssUI->cc: shows sorted data and requests aproval

  deactivate
  deactivate vaStore

else alt bubble sort
  cc  -> lUI: bubble sort
  activate lUI
  lUI -> bsUI: by arrival/leaving time
 deactivate lUI
  activate bsUI

   bsUI-> vaCtrl:this.vaList= vaList
   activate vaCtrl
    bsUI-> vaCtrl: bubbleSort(vaList)
    vaCtrl->vaStore: bubbleSort(vaList)
    deactivate
    activate vaStore
  bsUI->cc: shows sorted data and requests aproval
  deactivate bsUI
    deactivate vaStore
      deactivate lUI
end alt


@enduml