name;address;phoneNumber;email;citizenCardNumber;gender;birthDate;snsUserNumber
Ana;Rua;999888111;ana2@isep.pt;;Female;25-03-1997;888777111
Beatriz;Avenida;999888112;beatriz2@isep.pt;1000002;Female;26-03-1997;888777112
Cátia;Praça;999888113;catia2@isep.pt;1000003;Female;27-03-1997;888777113