<?xml version="1.0" encoding="UTF-8"?>
<!DOCTYPE svg PUBLIC '-//W3C//DTD SVG 1.0//EN'
          'http://www.w3.org/TR/2001/REC-SVG-20010904/DTD/svg10.dtd'>
<svg fill-opacity="0" xmlns:xlink="http://www.w3.org/1999/xlink" color-rendering="auto" color-interpolation="auto" text-rendering="auto" stroke="rgb(0,0,0)" stroke-linecap="square" width="446" stroke-miterlimit="10" shape-rendering="auto" stroke-opacity="0" fill="rgb(0,0,0)" stroke-dasharray="none" font-weight="normal" stroke-width="1" height="480" xmlns="http://www.w3.org/2000/svg" font-family="'Dialog'" font-style="normal" stroke-linejoin="miter" font-size="12px" stroke-dashoffset="0" image-rendering="auto"
><!--Generated by the Batik Graphics2D SVG Generator--><defs id="genericDefs"
  /><g
  ><defs id="defs1"
    ><clipPath clipPathUnits="userSpaceOnUse" id="clipPath1"
      ><path d="M-7 -7 L91 -7 L91 51 L-7 51 L-7 -7 Z"
      /></clipPath
      ><clipPath clipPathUnits="userSpaceOnUse" id="clipPath2"
      ><path d="M0 0 L0 25 L80 25 L80 0 Z"
      /></clipPath
      ><clipPath clipPathUnits="userSpaceOnUse" id="clipPath3"
      ><path d="M0 0 L0 15 L80 15 L80 0 Z"
      /></clipPath
      ><clipPath clipPathUnits="userSpaceOnUse" id="clipPath4"
      ><path d="M-7 -7 L91 -7 L91 64 L-7 64 L-7 -7 Z"
      /></clipPath
      ><clipPath clipPathUnits="userSpaceOnUse" id="clipPath5"
      ><path d="M0 0 L0 38 L80 38 L80 0 Z"
      /></clipPath
      ><clipPath clipPathUnits="userSpaceOnUse" id="clipPath6"
      ><path d="M-7 -7 L91 -7 L91 79 L-7 79 L-7 -7 Z"
      /></clipPath
      ><clipPath clipPathUnits="userSpaceOnUse" id="clipPath7"
      ><path d="M0 0 L0 53 L80 53 L80 0 Z"
      /></clipPath
      ><clipPath clipPathUnits="userSpaceOnUse" id="clipPath8"
      ><path d="M-7 -7 L94 -7 L94 51 L-7 51 L-7 -7 Z"
      /></clipPath
      ><clipPath clipPathUnits="userSpaceOnUse" id="clipPath9"
      ><path d="M0 0 L0 25 L83 25 L83 0 Z"
      /></clipPath
      ><clipPath clipPathUnits="userSpaceOnUse" id="clipPath10"
      ><path d="M0 0 L0 15 L83 15 L83 0 Z"
      /></clipPath
      ><clipPath clipPathUnits="userSpaceOnUse" id="clipPath11"
      ><path d="M-7 -7 L38 -7 L38 26 L-7 26 L-7 -7 Z"
      /></clipPath
      ><clipPath clipPathUnits="userSpaceOnUse" id="clipPath12"
      ><path d="M0 0 L0 15 L27 15 L27 0 Z"
      /></clipPath
      ><clipPath clipPathUnits="userSpaceOnUse" id="clipPath13"
      ><path d="M-7 -7 L36 -7 L36 26 L-7 26 L-7 -7 Z"
      /></clipPath
      ><clipPath clipPathUnits="userSpaceOnUse" id="clipPath14"
      ><path d="M0 0 L0 15 L25 15 L25 0 Z"
      /></clipPath
      ><clipPath clipPathUnits="userSpaceOnUse" id="clipPath15"
      ><path d="M0 0 L169 0 L169 215 L0 215 L0 0 Z"
      /></clipPath
      ><clipPath clipPathUnits="userSpaceOnUse" id="clipPath16"
      ><path d="M141 95 L141 111 L68 111 L68 95 ZM0 0 L0 215 L169 215 L169 0 Z"
      /></clipPath
      ><clipPath clipPathUnits="userSpaceOnUse" id="clipPath17"
      ><path d="M0 0 L169 0 L169 207 L0 207 L0 0 Z"
      /></clipPath
      ><clipPath clipPathUnits="userSpaceOnUse" id="clipPath18"
      ><path d="M124 81 L124 97 L65 97 L65 81 ZM0 0 L0 207 L169 207 L169 0 Z"
      /></clipPath
      ><clipPath clipPathUnits="userSpaceOnUse" id="clipPath19"
      ><path d="M0 0 L104 0 L104 373 L0 373 L0 0 Z"
      /></clipPath
      ><clipPath clipPathUnits="userSpaceOnUse" id="clipPath20"
      ><path d="M0 0 L0 95 L22 95 L22 111 L0 111 L0 247 L5 247 L5 263 L0 263 L0 373 L104 373 L104 193 L55 193 L55 177 L104 177 L104 0 Z"
      /></clipPath
      ><clipPath clipPathUnits="userSpaceOnUse" id="clipPath21"
      ><path d="M0 0 L266 0 L266 497 L0 497 L0 0 Z"
      /></clipPath
      ><clipPath clipPathUnits="userSpaceOnUse" id="clipPath22"
      ><path d="M183 178 L183 194 L27 194 L27 178 ZM161 400 L161 416 L71 416 L71 400 ZM0 0 L0 497 L266 497 L266 284 L215 284 L215 268 L266 268 L266 0 Z"
      /></clipPath
      ><clipPath clipPathUnits="userSpaceOnUse" id="clipPath23"
      ><path d="M0 0 L140 0 L140 157 L0 157 L0 0 Z"
      /></clipPath
      ><clipPath clipPathUnits="userSpaceOnUse" id="clipPath24"
      ><path d="M0 0 L0 157 L140 157 L140 76 L71 76 L71 60 L140 60 L140 0 Z"
      /></clipPath
      ><clipPath clipPathUnits="userSpaceOnUse" id="clipPath25"
      ><path d="M-90 -16 L180 -16 L180 32 L-90 32 L-90 -16 Z"
      /></clipPath
      ><clipPath clipPathUnits="userSpaceOnUse" id="clipPath26"
      ><path d="M-100 -16 L170 -16 L170 32 L-100 32 L-100 -16 Z"
      /></clipPath
      ><clipPath clipPathUnits="userSpaceOnUse" id="clipPath27"
      ><path d="M-70 -16 L140 -16 L140 32 L-70 32 L-70 -16 Z"
      /></clipPath
      ><clipPath clipPathUnits="userSpaceOnUse" id="clipPath28"
      ><path d="M-80 -16 L130 -16 L130 32 L-80 32 L-80 -16 Z"
      /></clipPath
      ><clipPath clipPathUnits="userSpaceOnUse" id="clipPath29"
      ><path d="M-156 -16 L312 -16 L312 32 L-156 32 L-156 -16 Z"
      /></clipPath
      ><clipPath clipPathUnits="userSpaceOnUse" id="clipPath30"
      ><path d="M-166 -16 L302 -16 L302 32 L-166 32 L-166 -16 Z"
      /></clipPath
      ><clipPath clipPathUnits="userSpaceOnUse" id="clipPath31"
      ><path d="M-59 -16 L118 -16 L118 32 L-59 32 L-59 -16 Z"
      /></clipPath
      ><clipPath clipPathUnits="userSpaceOnUse" id="clipPath32"
      ><path d="M-69 -16 L108 -16 L108 32 L-69 32 L-69 -16 Z"
      /></clipPath
      ><clipPath clipPathUnits="userSpaceOnUse" id="clipPath33"
      ><path d="M-73 -16 L146 -16 L146 32 L-73 32 L-73 -16 Z"
      /></clipPath
      ><clipPath clipPathUnits="userSpaceOnUse" id="clipPath34"
      ><path d="M-83 -16 L136 -16 L136 32 L-83 32 L-83 -16 Z"
      /></clipPath
    ></defs
    ><g fill="white" text-rendering="geometricPrecision" fill-opacity="1" stroke-opacity="1" stroke="white"
    ><rect x="0" width="446" height="480" y="0" stroke="none"
    /></g
    ><g font-size="11px" transform="translate(126,2)" fill-opacity="1" fill="rgb(122,207,245)" text-rendering="geometricPrecision" image-rendering="optimizeQuality" font-family="sans-serif" stroke="rgb(122,207,245)" font-weight="bold" stroke-opacity="1"
    ><rect x="0" width="80" height="40" y="0" clip-path="url(#clipPath1)" stroke="none"
    /></g
    ><g fill-opacity="1" text-rendering="geometricPrecision" stroke="black" stroke-linecap="butt" transform="translate(126,2)" stroke-miterlimit="0" stroke-opacity="1" fill="black" font-weight="bold" font-family="sans-serif" stroke-linejoin="round" font-size="11px" image-rendering="optimizeQuality"
    ><rect fill="none" x="0" width="80" height="40" y="0" clip-path="url(#clipPath1)"
      /><line y2="15" fill="none" x1="0" clip-path="url(#clipPath1)" x2="80" y1="15"
    /></g
    ><g font-size="11px" transform="matrix(1,0,0,1,126,17)" fill-opacity="1" fill="black" text-rendering="geometricPrecision" image-rendering="optimizeQuality" font-family="sans-serif" stroke="black" stroke-opacity="1"
    ><text x="2" xml:space="preserve" y="14" clip-path="url(#clipPath2)" stroke="none"
      >-designation</text
    ></g
    ><g font-size="11px" transform="translate(126,2)" fill-opacity="1" fill="black" text-rendering="geometricPrecision" image-rendering="optimizeQuality" font-family="sans-serif" stroke="black" font-weight="bold" stroke-opacity="1"
    ><text x="14" xml:space="preserve" y="12" clip-path="url(#clipPath3)" stroke="none"
      >Company</text
    ></g
    ><g font-size="11px" transform="translate(2,155)" fill-opacity="1" fill="rgb(122,207,245)" text-rendering="geometricPrecision" image-rendering="optimizeQuality" font-family="sans-serif" stroke="rgb(122,207,245)" font-weight="bold" stroke-opacity="1"
    ><rect x="0" width="80" height="53" y="0" clip-path="url(#clipPath4)" stroke="none"
    /></g
    ><g fill-opacity="1" text-rendering="geometricPrecision" stroke="black" stroke-linecap="butt" transform="translate(2,155)" stroke-miterlimit="0" stroke-opacity="1" fill="black" font-weight="bold" font-family="sans-serif" stroke-linejoin="round" font-size="11px" image-rendering="optimizeQuality"
    ><rect fill="none" x="0" width="80" height="53" y="0" clip-path="url(#clipPath4)"
      /><line y2="15" fill="none" x1="0" clip-path="url(#clipPath4)" x2="80" y1="15"
    /></g
    ><g font-size="11px" transform="matrix(1,0,0,1,2,170)" fill-opacity="1" fill="black" text-rendering="geometricPrecision" image-rendering="optimizeQuality" font-family="sans-serif" stroke="black" stroke-opacity="1"
    ><text x="2" xml:space="preserve" y="14" clip-path="url(#clipPath5)" stroke="none"
      >-name</text
    ></g
    ><g font-size="11px" transform="matrix(1,0,0,1,2,170)" fill-opacity="1" fill="black" text-rendering="geometricPrecision" image-rendering="optimizeQuality" font-family="sans-serif" stroke="black" stroke-opacity="1"
    ><text x="2" xml:space="preserve" y="29" clip-path="url(#clipPath5)" stroke="none"
      >-brand</text
    ></g
    ><g font-size="11px" transform="translate(2,155)" fill-opacity="1" fill="black" text-rendering="geometricPrecision" image-rendering="optimizeQuality" font-family="sans-serif" stroke="black" font-weight="bold" stroke-opacity="1"
    ><text x="19" xml:space="preserve" y="12" clip-path="url(#clipPath3)" stroke="none"
      >Vaccine</text
    ></g
    ><g font-size="11px" transform="translate(126,313)" fill-opacity="1" fill="rgb(122,207,245)" text-rendering="geometricPrecision" image-rendering="optimizeQuality" font-family="sans-serif" stroke="rgb(122,207,245)" font-weight="bold" stroke-opacity="1"
    ><rect x="0" width="80" height="68" y="0" clip-path="url(#clipPath6)" stroke="none"
    /></g
    ><g fill-opacity="1" text-rendering="geometricPrecision" stroke="black" stroke-linecap="butt" transform="translate(126,313)" stroke-miterlimit="0" stroke-opacity="1" fill="black" font-weight="bold" font-family="sans-serif" stroke-linejoin="round" font-size="11px" image-rendering="optimizeQuality"
    ><rect fill="none" x="0" width="80" height="68" y="0" clip-path="url(#clipPath6)"
      /><line y2="15" fill="none" x1="0" clip-path="url(#clipPath6)" x2="80" y1="15"
    /></g
    ><g font-size="11px" transform="matrix(1,0,0,1,126,328)" fill-opacity="1" fill="black" text-rendering="geometricPrecision" image-rendering="optimizeQuality" font-family="sans-serif" stroke="black" stroke-opacity="1"
    ><text x="2" xml:space="preserve" y="14" clip-path="url(#clipPath7)" stroke="none"
      >-code</text
    ></g
    ><g font-size="11px" transform="matrix(1,0,0,1,126,328)" fill-opacity="1" fill="black" text-rendering="geometricPrecision" image-rendering="optimizeQuality" font-family="sans-serif" stroke="black" stroke-opacity="1"
    ><text x="2" xml:space="preserve" y="29" clip-path="url(#clipPath7)" stroke="none"
      >-designation</text
    ></g
    ><g font-size="11px" transform="matrix(1,0,0,1,126,328)" fill-opacity="1" fill="black" text-rendering="geometricPrecision" image-rendering="optimizeQuality" font-family="sans-serif" stroke="black" stroke-opacity="1"
    ><text x="2" xml:space="preserve" y="44" clip-path="url(#clipPath7)" stroke="none"
      >-whoId</text
    ></g
    ><g font-size="11px" transform="translate(126,313)" fill-opacity="1" fill="black" text-rendering="geometricPrecision" image-rendering="optimizeQuality" font-family="sans-serif" stroke="black" font-weight="bold" stroke-opacity="1"
    ><text x="5" xml:space="preserve" y="12" clip-path="url(#clipPath3)" stroke="none"
      >VaccineType</text
    ></g
    ><g font-size="11px" transform="translate(244,436)" fill-opacity="1" fill="rgb(122,207,245)" text-rendering="geometricPrecision" image-rendering="optimizeQuality" font-family="sans-serif" stroke="rgb(122,207,245)" font-weight="bold" stroke-opacity="1"
    ><rect x="0" width="83" height="40" y="0" clip-path="url(#clipPath8)" stroke="none"
    /></g
    ><g fill-opacity="1" text-rendering="geometricPrecision" stroke="black" stroke-linecap="butt" transform="translate(244,436)" stroke-miterlimit="0" stroke-opacity="1" fill="black" font-weight="bold" font-family="sans-serif" stroke-linejoin="round" font-size="11px" image-rendering="optimizeQuality"
    ><rect fill="none" x="0" width="83" height="40" y="0" clip-path="url(#clipPath8)"
      /><line y2="15" fill="none" x1="0" clip-path="url(#clipPath8)" x2="83" y1="15"
    /></g
    ><g font-size="11px" transform="translate(244,436)" fill-opacity="1" fill="black" text-rendering="geometricPrecision" image-rendering="optimizeQuality" font-family="sans-serif" stroke="black" font-weight="bold" stroke-opacity="1"
    ><text x="4" xml:space="preserve" y="12" clip-path="url(#clipPath10)" stroke="none"
      >Administrator</text
    ></g
    ><g font-size="11px" transform="translate(206,25)" fill-opacity="1" fill="black" text-rendering="geometricPrecision" image-rendering="optimizeQuality" font-family="sans-serif" stroke="black" stroke-opacity="1"
    ><text x="10" xml:space="preserve" y="12" clip-path="url(#clipPath12)" stroke="none"
      >1</text
    ></g
    ><g font-size="11px" transform="translate(332,421)" fill-opacity="1" fill="black" text-rendering="geometricPrecision" image-rendering="optimizeQuality" font-family="sans-serif" stroke="black" stroke-opacity="1"
    ><text x="10" xml:space="preserve" y="12" clip-path="url(#clipPath14)" stroke="none"
      >*</text
    ></g
    ><g font-size="11px" transform="translate(178,42)" fill-opacity="1" fill="black" text-rendering="geometricPrecision" image-rendering="optimizeQuality" font-family="sans-serif" stroke="black" stroke-opacity="1"
    ><text x="10" xml:space="preserve" y="12" clip-path="url(#clipPath12)" stroke="none"
      >1</text
    ></g
    ><g font-size="11px" transform="translate(180,290)" fill-opacity="1" fill="black" text-rendering="geometricPrecision" image-rendering="optimizeQuality" font-family="sans-serif" stroke="black" stroke-opacity="1"
    ><text x="10" xml:space="preserve" y="12" clip-path="url(#clipPath14)" stroke="none"
      >*</text
    ></g
    ><g font-size="11px" transform="translate(38,215)" fill-opacity="1" fill="black" text-rendering="geometricPrecision" image-rendering="optimizeQuality" font-family="sans-serif" stroke="black" stroke-opacity="1"
    ><text x="10" xml:space="preserve" y="12" clip-path="url(#clipPath14)" stroke="none"
      >*</text
    ></g
    ><g font-size="11px" transform="translate(93,302)" fill-opacity="1" fill="black" text-rendering="geometricPrecision" image-rendering="optimizeQuality" font-family="sans-serif" stroke="black" stroke-opacity="1"
    ><text x="10" xml:space="preserve" y="12" clip-path="url(#clipPath12)" stroke="none"
      >1</text
    ></g
    ><g font-size="11px" transform="translate(123,42)" fill-opacity="1" fill="black" text-rendering="geometricPrecision" image-rendering="optimizeQuality" font-family="sans-serif" stroke="black" stroke-opacity="1"
    ><text x="10" xml:space="preserve" y="12" clip-path="url(#clipPath12)" stroke="none"
      >1</text
    ></g
    ><g font-size="11px" transform="translate(35,130)" fill-opacity="1" fill="black" text-rendering="geometricPrecision" image-rendering="optimizeQuality" font-family="sans-serif" stroke="black" stroke-opacity="1"
    ><text x="10" xml:space="preserve" y="12" clip-path="url(#clipPath14)" stroke="none"
      >*</text
    ></g
    ><g font-size="11px" transform="translate(206,366)" fill-opacity="1" fill="black" text-rendering="geometricPrecision" image-rendering="optimizeQuality" font-family="sans-serif" stroke="black" stroke-opacity="1"
    ><text x="10" xml:space="preserve" y="12" clip-path="url(#clipPath14)" stroke="none"
      >*</text
    ></g
    ><g font-size="11px" transform="translate(215,434)" fill-opacity="1" fill="black" text-rendering="geometricPrecision" image-rendering="optimizeQuality" font-family="sans-serif" stroke="black" stroke-opacity="1"
    ><text x="10" xml:space="preserve" y="12" clip-path="url(#clipPath12)" stroke="none"
      >1</text
    ></g
    ><g stroke-linecap="butt" font-size="11px" transform="translate(10,-7)" fill-opacity="1" fill="black" text-rendering="geometricPrecision" image-rendering="optimizeQuality" font-family="sans-serif" stroke-linejoin="round" stroke="black" stroke-opacity="1"
    ><line y2="72" fill="none" x1="115" clip-path="url(#clipPath16)" x2="84" y1="50"
      /><line y2="102" fill="none" x1="84" clip-path="url(#clipPath16)" x2="62" y1="72"
      /><line y2="136" fill="none" x1="62" clip-path="url(#clipPath16)" x2="50" y1="102"
      /><line y2="161" fill="none" x1="50" clip-path="url(#clipPath16)" x2="50" y1="136"
    /></g
    ><g stroke-linecap="butt" font-size="11px" transform="translate(10,159)" fill-opacity="1" fill="black" text-rendering="geometricPrecision" image-rendering="optimizeQuality" font-family="sans-serif" stroke-linejoin="round" stroke="black" stroke-opacity="1"
    ><line y2="63" fill="none" x1="50" clip-path="url(#clipPath18)" x2="50" y1="50"
      /><line y2="91" fill="none" x1="50" clip-path="url(#clipPath18)" x2="56" y1="63"
      /><line y2="113" fill="none" x1="56" clip-path="url(#clipPath18)" x2="72" y1="91"
      /><line y2="153" fill="none" x1="72" clip-path="url(#clipPath18)" x2="115" y1="113"
    /></g
    ><g stroke-linecap="butt" font-size="11px" transform="translate(129,-7)" fill-opacity="1" fill="black" text-rendering="geometricPrecision" image-rendering="optimizeQuality" font-family="sans-serif" stroke-linejoin="round" stroke="black" stroke-opacity="1"
    ><line y2="319" fill="none" x1="50" clip-path="url(#clipPath20)" x2="50" y1="50"
    /></g
    ><g stroke-linecap="butt" font-size="11px" transform="translate(157,-8)" fill-opacity="1" fill="black" text-rendering="geometricPrecision" image-rendering="optimizeQuality" font-family="sans-serif" stroke-linejoin="round" stroke="black" stroke-opacity="1"
    ><line y2="109" fill="none" x1="50" clip-path="url(#clipPath22)" x2="159" y1="50"
      /><line y2="187" fill="none" x1="159" clip-path="url(#clipPath22)" x2="200" y1="109"
      /><line y2="258" fill="none" x1="200" clip-path="url(#clipPath22)" x2="212" y1="187"
      /><line y2="359" fill="none" x1="212" clip-path="url(#clipPath22)" x2="200" y1="258"
      /><line y2="443" fill="none" x1="200" clip-path="url(#clipPath22)" x2="170" y1="359"
    /></g
    ><g stroke-linecap="butt" font-size="11px" transform="translate(157,332)" fill-opacity="1" fill="black" text-rendering="geometricPrecision" image-rendering="optimizeQuality" font-family="sans-serif" stroke-linejoin="round" stroke="black" stroke-opacity="1"
    ><line y2="103" fill="none" x1="50" clip-path="url(#clipPath24)" x2="86" y1="50"
    /></g
    ><g font-size="11px" transform="translate(238,392)" fill-opacity="1" fill="black" text-rendering="geometricPrecision" image-rendering="optimizeQuality" font-family="sans-serif" stroke="black" stroke-opacity="1"
    ><path d="M11.6522 11.8769 L0.2117 3.9325 L8.4838 -1.6863 Z" stroke="none" clip-path="url(#clipPath26)"
      /><text x="27" xml:space="preserve" y="12" clip-path="url(#clipPath25)" transform="translate(-10,0)" stroke="none"
      >created by</text
    ></g
    ><g font-size="11px" transform="translate(382,260)" fill-opacity="1" fill="black" text-rendering="geometricPrecision" image-rendering="optimizeQuality" font-family="sans-serif" stroke="black" stroke-opacity="1"
    ><path d="M7.2331 12.9546 L3.8018 -0.5445 L13.732 0.6353 Z" stroke="none" clip-path="url(#clipPath28)"
      /><text x="27" xml:space="preserve" y="12" clip-path="url(#clipPath27)" transform="translate(-10,0)" stroke="none"
      >knows</text
    ></g
    ><g font-size="11px" transform="translate(194,170)" fill-opacity="1" fill="black" text-rendering="geometricPrecision" image-rendering="optimizeQuality" font-family="sans-serif" stroke="black" stroke-opacity="1"
    ><path d="M8 13 L3 0 L13 0 Z" stroke="none" clip-path="url(#clipPath30)"
      /><text x="27" xml:space="preserve" y="12" clip-path="url(#clipPath29)" transform="translate(-10,0)" stroke="none"
      >promotes administration</text
    ></g
    ><g font-size="11px" transform="translate(85,240)" fill-opacity="1" fill="black" text-rendering="geometricPrecision" image-rendering="optimizeQuality" font-family="sans-serif" stroke="black" stroke-opacity="1"
    ><path d="M11.8231 11.7568 L0.1332 4.1841 L8.2206 -1.6976 Z" stroke="none" clip-path="url(#clipPath32)"
      /><text x="27" xml:space="preserve" y="12" clip-path="url(#clipPath31)" transform="translate(-10,0)" stroke="none"
      >is of</text
    ></g
    ><g font-size="11px" transform="translate(88,88)" fill-opacity="1" fill="black" text-rendering="geometricPrecision" image-rendering="optimizeQuality" font-family="sans-serif" stroke="black" stroke-opacity="1"
    ><path d="M4.1561 11.7416 L7.8118 -1.6985 L15.8759 4.2152 Z" stroke="none" clip-path="url(#clipPath34)"
      /><text x="28" xml:space="preserve" y="12" clip-path="url(#clipPath33)" transform="translate(-10,0)" stroke="none"
      >applies</text
    ></g
    ><g font-size="8px" fill-opacity="1" fill="rgb(120,120,120)" text-rendering="geometricPrecision" image-rendering="optimizeQuality" stroke="rgb(120,120,120)" stroke-opacity="1"
    ><text x="0" xml:space="preserve" y="10" stroke="none"
      >Visual Paradigm Standard(Diogo Couto(Instituto Superior de Engenharia do Porto))</text
    ></g
  ></g
></svg
>
