@startuml
class NurseMenuUI

class NurseController{
- vcStore: VacinationCenterStore
- mvcStore: MassVacinationCenterStore
- hcStore: HealthCenterStore

+getVCstore()
+getMvcStore()
+getHcStore()
}
class Company{
vcStore: VacinationCenterStore
atStore: ArrivalTimeStore
+getVcStore(){this.vcStore=company.getVacinationCenter}
+getMvcStore()
+getHcStore()
+getArStore()

}


class VacinationCenterStore{
vcList: ArrayList
+getVcList()
}


class UsersWaitingUI

class ArrivalTimeController{

+getArrivalTimesByVC(VacinationcCenter vc){return arrivalTimesVC}
+getArrivalTime(){return arrivalTimes}

}

class ArrivalTimeStore{
arrivalTimes: ArrayList<ArrivalTime>
arrivalTimesVC: ArrayList<ArrivalTime>

+getArrivalTimesByVC(VacinationcCenter vc){return arrivalTimesVC}
+getArrivalTime(){return arrivalTimes}


}


NurseMenuUI..>NurseController
NurseController..> Company


Company..>VacinationCenterStore

NurseMenuUI..>UsersWaitingUI
UsersWaitingUI..>NurseController
UsersWaitingUI..>ArrivalTimeController

ArrivalTimeController..>Company
Company..>ArrivalTimeStore


@enduml