@startuml
hide methods
left to right direction
skinparam classAttributeIconSize 0

class Company {
  -designation
}

class SNSUser {
  -name
  -gender
  -address
  -phoneNumber
  -email
  -citizenCardNumber
  -birthDate
  -snsUserNumber
}

Company "1" -- "*" SNSUser : knows >
SNSUser "0..1" -- "1" User : becomes >

@enduml