@startuml
'https://plantuml.com/sequence-diagram
actor Administrator
autonumber
activate Administrator
Administrator -> System: asks to create a new vacination center
activate System
System --> Administrator:requests data (eg.: name, adress,\n phone number, email, address,\n  openingHour, closingHour, slotDuration, \n maximumNumberVaccinesPerSlot)\n
deactivate System
Administrator -> System: types data requests
activate System
Administrator <-- System: shows vaccine types categories list and ask to select one
deactivate System
Administrator -> System: selects a vaccine
activate System
Administrator <-- System: shows all data and requests confirmation
deactivate System
Administrator -> System: confirms data
activate System
System-->Administrator:  informs operation
@enduml